{
    "txt_new_template": "Nowy szablon",
    "txt_templates": "Szablony",
    "btn_overwrite": "Zast\u0105p",
    "btn_select": "Wybierz",
    "confirm_delete_template": "Czy na pewno chcesz usun\u0105\u0107 wybrany szablon?",
    "confirm_overwrite_template": "Czy na pewno chcesz nadpisa\u0107 tekst wybranego szablonu?",
    "h3_others": "Inne",
    "vehicle_card_footer_text": "W\u0142asny tekst w stopce kartki za szybe",
    "txt_continue_as": "Zaloguj si\u0119 jako",
    "vehicle_import_status": "Status pojazdu",
    "vehicle_load_capacity": "\u0141adowno\u015b\u0107",
    "title_export_vehicles_list": "Eksport na portale",
    "menu_vehicles_export": "Eksport na portale",
    "export_on_allegro": "Eksportuj na allegro\n \n",
    "title_export_status": "Status eksportu",
    "menu_export_status": "Status eksportu",
    "vehicle_export_status": "Status eksportu",
    "setting_menu_portals": "Portale internetowe",
    "vehicle_custom_id": "Nr samochodu",
    "vehicle_keys": "Nr klucza",
    "owner_is_coverholder": "Ubezpieczony jest W\u0142a\u015bcicielem Pojazdu",
    "vehicle_visible_on_web": "Moja strona WWW",
    "vehicle_not_visible_on_web": "Moja strona WWW",
    "vehicle_create_warranty": "Ubezpiecz",
    "settings_menu_portals": "Portale - konfiguracja eksportu",
    "close": "Zwi\u0144",
    "btn_configure": "Konfiguruj",
    "info": "Info",
    "configuration": "Konfiguracja",
    "portal_catalog": "Katalog pocz\u0105tkowy",
    "portal_key": "Klucz Komisu",
    "portal_code": "Kod komisu",
    "export_on_portals": "Eksportuj na portale",
    "export_on_otomoto": "Eksportuj na otoMoto",
    "submit_search": "Szukaj",
    "title_vehicle_search": "Wyszukiwanie pojazd\u00f3w",
    "btn_reset_form": "Reset",
    "defend_customer_type": "Typ",
    "vehicle_is_driving_right": "Kierownica po prawej (Anglik)",
    "vehicle_is_registered_in_poland": "Zarejestrowany w Polsce",
    "vehicle_is_serviced_in_aso": "Serwisowany ASO",
    "vehicle_is_crashed": "Bezwypadkowy",
    "vehicle_is_truck_homologation": "Homologacja ci\u0119\u017carowa",
    "vehicle_is_price_negotiable": "Do negocjacji",
    "vehicle_is_credit_possible": "Kredyt",
    "vehicle_is_leasing_possible": "Leasing",
    "vehicle_leasing_initial_charge": "Op\u0142ata pocz\u0105tkowa",
    "vehicle_leasing_monthly_rate": "Miesi\u0119czna rata",
    "vehicle_leasing_remaining_installments": "Liczba pozosta\u0142ych rat",
    "vehicle_leasing_redemption_value": "Warto\u015b\u0107 wykupu",
    "vehicle_solid_particles_filter": "Filtr cz\u0105stek sta\u0142ych",
    "vehicle_co2_emissions": "Emisja CO2",
    "vehicle_drive_type": "Nap\u0119d",
    "vehicle_color_metallic": "Metallic",
    "vehicle_type": "Typ",
    "vehicle_model_version": "Wersja modelu",
    "vehicle_menu_activate": "Przenie\u015b do aktywnej listy",
    "vehicle_activated": "Pojazd zosta\u0142 przeniesiony do aktywnej listy",
    "btn_show_all_cars": "Poka\u017c wszystkie samochody",
    "title_top_offers": "Najlepsze oferty",
    "title_choose_new_car": "Wybierz sw\u00f3j nowy samoch\u00f3d",
    "btn_filter_vehicles": "Zobacz pojazdy",
    "title_our_cars": "Nasze oferty",
    "btn_interested": "Jestem zainteresowany",
    "title_similar_cars": "Pojazdy podobne",
    "title_interested": "Czy jeste\u015b zainteresowany?",
    "title_our_team": "Nasz zesp\u00f3\u0142",
    "title_send_message": "Wy\u015blij nam wiadomo\u015b\u0107",
    "message": "Wiadomo\u015b\u0107",
    "submit_send": "Wy\u015blij",
    "\u0158ada 1": "Seria 1",
    "\u0158ada 3": "Seria 3",
    "\u0158ada 4": "Seria 4",
    "\u0158ada 5": "Seria 5",
    "\u0158ada 6": "Seria 6",
    "\u0158ada 7": "Seria 7",
    "btn_cancel": "Wyj\u015bcie",
    "h3_idefend_defaults": "Ustawienia domy\u015blne",
    "customer_type": "Rodzaj klienta",
    "greeting_1": "Cze\u015b\u0107",
    "greeting_2": "Cze\u015b\u0107",
    "greeting_3": "Dzie\u0144 dobry",
    "greeting_4": "Mi\u0142ego dnia",
    "vehico_claim": "wydajne sprzeda\u017c samochod\u00f3w",
    "email_signature": "Z powa\u017caniem,<br><i>Strona g\u0142\u00f3wna Aplikacje Zesp\u00f3\u0142 Vehico<\/i>",
    "mail_registration_body": "Rejestracja w systemie Vehico powiod\u0142a si\u0119. Dzi\u0119kujemy i \u017cyczymy satysfakcji z korzystania z Vehico.",
    "mail_password_lost_body": "Zapomnia\u0142e\u015b has\u0142o? Kliknij tutaj aby ustawi\u0107 nowe has\u0142o",
    "mail_password_recovery_body": "Twoje has\u0142o do aplikacji Vehico zosta\u0142o zmienione. Has\u0142o mo\u017cna zmienia\u0107 w dowolnym momencie w ustawieniach konta w aplikacji Vehico.",
    "mail_registration_subject": "Rejestracja",
    "mail_password_lost_subject": "Nie pami\u0119tasz has\u0142a",
    "mail_password_recovery_subject": "Twoje has\u0142o zosta\u0142o zmienione",
    "title_registration": "Wniosek o rejestracj\u0119",
    "title_registration_registration_step1": "Zapraszamy do rejestracji, tutaj po prostu utworzy\u0107 konto dost\u0119pu.",
    "title_registration_registration_step2": "Niekt\u00f3re dane starali\u015bmy si\u0119 wype\u0142ni\u0107 dla ciebie. Upewnij si\u0119, \u017ce s\u0105 prawid\u0142owe.",
    "title_registration_registration_step3": "Ostatni\u0105 wa\u017cn\u0105 rzecz\u0105 - dane dost\u0119pu do swojego konta.",
    "msg_error_no_data_for_vat_id": "Dla danego ID nie znaleziono danych.",
    "msg_error_ares_unreachable": "Nie mo\u017cna po\u0142\u0105czy\u0107 si\u0119 z baz\u0105 danych, aby uzyska\u0107 informacje ARES firmy.",
    "label_country": "Kraj",
    "label_company_vat_id": "NIP",
    "msg_error_company_vat_id_registered": "Firma z tym samym identyfikatorem jest ju\u017c zarejestrowany",
    "submit_continue": "Dalej",
    "company_name": "Nazwa firmy",
    "owner_name": "Nazwa w\u0142a\u015bciciela",
    "branch_name": "Nazwa oddzia\u0142u",
    "label_region": "Wojew\u00f3dztwo",
    "msg_error_postal_wrong_format": "Pocztowy ma nieprawid\u0142owy format",
    "msg_error_company_same_name_exists": "Firma o tej samej nazwie jest ju\u017c zarejestrowany",
    "msg_error_company_same_email_exists": "Firma z tym samym e-mail jest ju\u017c zarejestrowany",
    "msg_error_select_region": "Prosz\u0119 wybra\u0107 region",
    "msg_error_telephone_wrong_format": "Numer telefonu ma nieprawid\u0142owy format",
    "submit_finish_registration": "Rejestruj",
    "msg_error_same_username_exists": "U\u017cytkownicy z tej samej nazwie jest ju\u017c zarejestrowany",
    "msg_error_user_same_email_exists": "U\u017cytkownik z tym samym e-mail jest ju\u017c zarejestrowany",
    "msg_error_missing_vat_id": "Identyfikacja musi by\u0107 wype\u0142nione",
    "msg_error_fulfill_company_details": "Prosz\u0119 wype\u0142ni\u0107 informacje o firmie",
    "msg_error_username_min_length": "Has\u0142o musi mie\u0107 co najmniej %min% znak\u00f3w",
    "msg_error_username_max_length": "Nazwa u\u017cytkownika musi by\u0107 maksymalnie %max% znak\u00f3w",
    "new_password": "Nowe has\u0142o",
    "submit_change_password": "Zmie\u0144 has\u0142o",
    "msg_password_not_min_length": "Has\u0142o musi mie\u0107 co najmniej %min% znak\u00f3w",
    "msg_sign_in_success": "Subskrypcja zosta\u0142a pomy\u015blnie",
    "msg_sign_out_success": "Zosta\u0142e\u015b poprawnie wylogowany",
    "submit_enter": "Wprowad\u017a",
    "submit_password_reset": "Przypomnij has\u0142o",
    "link_enter_app_as": "Uzyskaj dost\u0119p do aplikacji jako",
    "link_sign_in": "Zaloguj si\u0119",
    "link_sign_in_as_another_user": "Zaloguj si\u0119 jako inny u\u017cytkownik",
    "txt_sign_in": "login",
    "link_lost_password": "Nie pami\u0119tasz has\u0142a?",
    "txt_email_for_password_renew": "odzyskiwania has\u0142a, wpisz sw\u00f3j e-mail",
    "txt_enter_new_password": "Prosz\u0119 poda\u0107 swoje has\u0142o",
    "submit_save_activate": "Zapisz i aktywuj",
    "category": "Kategoria",
    "file": "Plik",
    "uploaded_date": "Dane",
    "submit_confirm_upload_files": "Potwierd\u017a dane",
    "warranty_list_docs": "Dokumenty",
    "tag_active": "Spis",
    "crm_case_assigned_vehicles": "Przypisana do pojazdu",
    "crn_case_search_stock_vehicles": "Szukaj w magazynie",
    "crm_case_un_assign_all_vehicles": "Usu\u0144 wszystko",
    "crm_case_no_vehicles_assigned": "Sprawa nie jest przypisana do \u017cadnego z pojazd\u00f3w",
    "vehicle_profile": "Profil samochodu",
    "crm_case_un_assign_vehicle": "Usu\u0144 z popytem",
    "confirm_delete_file": "Czy na pewno chcesz usun\u0105\u0107 plik{{ filename }}?",
    "h3_contracts": "Umowa",
    "upload_contract": "Dodaj nowe",
    "h3_invoices": "Faktury",
    "upload_invoice": "Dodaj nowe",
    "h3_other_documents": "Inne dokumenty",
    "upload_document": "Dodaj dokument",
    "submit_save": "Zapisz",
    "submit_add_comment": "Dodaj komentarz \/ zadania",
    "crm_events_count": "{NO, plural, 0{\u017e\u00e1dn\u00e1 aktivita} one{aktivita} few{aktivity} other{aktivit}}",
    "flash_customer_created": "Klient jest tworzony",
    "confirm_delete_customer": "Czy na pewno chcesz usun\u0105\u0107 tego klienta? System usunie wszystkie dane zwi\u0105zane ze sprzeda\u017c\u0105.",
    "flash_customer_deleted": "Klient zosta\u0142 usuni\u0119ty",
    "todo_assigned": "Przydzielone do",
    "h1_todo_list": "Lista zada\u0144",
    "flash_policy_created": "Gwarancja zosta\u0142a utworzona. Drukuj i podpisz dokumenty.",
    "flash_quote_created": "Oferta zosta\u0142a utworzona",
    "flash_sales_guide_completed": "Nadzwyczajny",
    "confirm_warranty_not_closed": "Nie masz zamkni\u0119tej gwarancji. Czy na pewno chcesz zako\u0144czy\u0107 sprzeda\u017c?",
    "flash_invoice_saved": "Faktura zosta\u0142a zapisana",
    "confirm_delete_selected_vehicle": "Czy na pewno chcesz usun\u0105\u0107 wybrany pojazd?",
    "flash_deleted": "Pomy\u015blnie usuni\u0119to",
    "confirm_delete_contract": "Czy jeste\u015b pewien, \u017ce chcesz usun\u0105\u0107 szablon:{{ contract }}?",
    "confirm_delete_branch": "Czy na pewno chcesz usun\u0105\u0107 wybrane rozszerzenie? Wszystkie informacje z nim zwi\u0105zane zostan\u0105 utracone.",
    "flash_branch_created": "Filia utworzona",
    "flash_logo_uploaded": "Logo przes\u0142ane",
    "flash_user_created": "Utworzone przez u\u017cytkownika",
    "flash_photo_uploaded": "Zdj\u0119cia przes\u0142ane",
    "h1_account_setting": "Ustawienia konta",
    "confirm_clear_form": "Naprawd\u0119 chcesz wyczy\u015bci\u0107 ca\u0142y formularz?",
    "submit_save_invoice": "Zapisz faktur\u0119",
    "flash_unable_vehicles_export": "Pojazd nie jest obecnie mo\u017cliwy do eksportu.",
    "flash_vehicles_export_start_1": "Usi\u0105d\u017a wygodnie, eksport jest w toku...",
    "flash_vehicles_export_start_2": "Jest ju\u017c eksport;)",
    "flash_vehicles_export_start_3": "Id\u017a na kaw\u0119, wywo\u017c\u0105 pojazd dla Ciebie",
    "flash_vehicles_export_start_4": "Opcje",
    "flash_vehicles_export_start_5": "Eksport w toku",
    "msg_reserved": "Zarezerwowany",
    "msg_reserved_till": "Zarezerwowane dla{{ date }}",
    "msg_export_errors": "B\u0142\u0105d podczas eksportowania",
    "flash_new_vehicle": "Wow. Mamy w sprzeda\u017cy nowy samoch\u00f3d!",
    "flash_error_vehicle_required_parts": "W przypadku pojazd\u00f3w nie zako\u0144czone wszystkie wymagane elementy",
    "flash_error_price_vat_deductible": "Nie mo\u017cna mie\u0107 ceny bez podatku VAT oraz mo\u017cliwo\u015b\u0107 odliczenia.",
    "confirm_copy_vehicle_photos": "Kopiowanie i zdj\u0119cia?",
    "flash_vehicle_copied": "Pojazd zosta\u0142 pomy\u015blnie skopiowany",
    "confirm_vehicle_to_archive": "Czy na pewno chcesz przenie\u015b\u0107 wybrany pojazd do archiwum?",
    "flash_vehicle_marked_sold": "Pojazd zosta\u0142 oznaczony jako sprzedany",
    "title_draft_vehicles_list": "Rozwini\u0119cie pojazd\u00f3w",
    "title_active_vehicles_list": "Lista pojazd\u00f3w",
    "title_archive_vehicles_list": "Archiwum pojazd\u00f3w",
    "title_sold_vehicles_list": "Sprzedane pojazdy",
    "title_vehicles_search": "Szukaj",
    "title_vehicles_search_no_results": "Nic nie znaleziono :(",
    "flash_vehicles_bulk_advertised": "Wybrany pojazd by\u0142 reklamowany",
    "flash_vehicles_bulk_unadvertised": "Pojazd zosta\u0142 wycofany z og\u0142oszenia",
    "confirm_vehicles_bulk_delete": "Czy na pewno chcesz usun\u0105\u0107 wybrany pojazd?",
    "flash_vehicles_bulk_delete": "Wybrany pojazd zosta\u0142 usuni\u0119ty",
    "confirm_vehicles_bulk_archive": "Czy na pewno chcesz przenie\u015b\u0107 wybrany pojazd do archiwum?",
    "flash_vehicles_bulk_archive": "Wybrany pojazd zosta\u0142 zarchiwizowany",
    "confirm_vehicles_bulk_activate": "Czy na pewno chcesz przenie\u015b\u0107 wybrany pojazd do listy?",
    "flash_vehicles_bulk_activate": "Wybrany pojazd zosta\u0142 przeniesiony z powrotem do listy",
    "msg_choose_advertising_servers": "Wybierz serwery(portale) do reklamowania",
    "flash_vehicles_bulk_servers": "Wybrane pojazdy b\u0119d\u0105 reklamowane na wybranych serwerach(portalach)",
    "confirm_delete_image": "Czy na pewno chcesz usun\u0105\u0107 zdj\u0119cie{{ name }}?",
    "confirm_delete_selected_images": "Czy na pewno chcesz usun\u0105\u0107 wszystkie wybrane zdj\u0119cia?",
    "confirm_delete_tag": "Czy na pewno chcesz usun\u0105\u0107 etykiet\u0119?",
    "btn_choose_customer": "Wybierz",
    "confirm_delete": "Czy na pewno usun\u0105\u0107?",
    "h1_promo_warranty": "Uaktywnij modu\u0142 gwarancji",
    "flash_defend_credentials_saved": "Dane dost\u0119pu do modu\u0142u gwarancje zosta\u0142y zapisane",
    "confirm_delete_policy": "Czy na pewno chcesz usun\u0105\u0107 wybrany produkt?",
    "flash_policy_canceled": "Gwarancja zosta\u0142a anulowana",
    "flash_error_no_warranty_coverages": "Nie mo\u017cna odnale\u017a\u0107 \u017cadnych program\u00f3w",
    "setting_menu_accounting": "Ksi\u0119gowo\u015b\u0107",
    "h3_accounting_setting": "Ustawienia modu\u0142u",
    "series_R3": "{R3} - liczba lat + numer - 2014001",
    "series_RM3": "{RM3} - rok + miesi\u0105c + numer - 201411001",
    "series_R5": "{R5} - rok + d\u0142ugi numer - 201400001",
    "series_RM5": "{RM5} - rok + miesi\u0105c + d\u0142uga liczba - 20141100001",
    "label_prepared_series": "Przygotowany do serii",
    "label_series_name": "Nazwa",
    "label_series_template": "Szablon",
    "flash_billing_series_activated": "Seria ustawiona jako aktywna",
    "h3_billing_series_list": "Numer faktury",
    "h3_new_billing_series": "Nowa",
    "followed_case_change": "Zmiany w przypadku odwo\u0142ania.",
    "header_quick_menu": "Utw\u00f3rz",
    "invoice_item_total_price": "Ca\u0142kowita cena",
    "invoice_no_exists": "Faktura z tym samym numerem ju\u017c istnieje!",
    "label_series_start_from": "Numer startowy",
    "flash_err_todo_nothing_to_check": "Nie masz uprawnie\u0144, aby zaznaczy\u0107 to zadanie jako uko\u0144czone.",
    "flash_err_todo_attached_event": "Zadanie jest przypisane do zdarzenia, wi\u0119c nie mo\u017ce by\u0107 edytowane.",
    "confirm_delete_vehicle_draft": "Czy na pewno chcesz usun\u0105\u0107 ten niedoko\u0144czony pojazd? Wszystkie dane zostan\u0105 utracone.",
    "h3_your_contracts": "Twoja umowa",
    "flash_cannot_go_to_sales_guide": "Nie mo\u017cesz sprzeda\u0107, poniewa\u017c sprawa nie jest przypisana do ka\u017cdego pojazdu.",
    "admin": "Administrator",
    "seller": "Sprzedawca",
    "user": "U\u017cytkownik",
    "clerk": "Administracja",
    "service": "Serwis",
    "vehicle_menu_flyer": "Ulotka",
    "setting_menu_api": "Ustawienia API",
    "h3_api_setting": "Ustawienia API",
    "api_key": "Klucz API",
    "btn_regenerate_key": "Reset",
    "flash_key_regenerated": "Zosta\u0142 wygenerowany klucz API",
    "flash_api_activated": "API aktywowane",
    "flash_api_deactivated": "API wy\u0142\u0105czone",
    "confirm_regenerate_api_key": "Czy na pewno chcesz zresetowa\u0107 klucz API? We wszystkich pod\u0142\u0105czonych aplikacjach b\u0119dzie trzeba ustawi\u0107 nowy klucz.",
    "confirm_delete_source": "Chcesz usun\u0105\u0107 wybrane \u017ar\u00f3d\u0142o?",
    "submit_delete": "Usu\u0144",
    "placeholder_new_source": "Osobista wizyta",
    "label_source_name": "Nazwa \u017ar\u00f3d\u0142a",
    "link_add_source": "Dodaj \u017ar\u00f3d\u0142o",
    "link_cancel_selection": "Anuluj wyb\u00f3r",
    "link_add_tag": "Dodaj znacznik",
    "label_tag_name": "Nazwa etykiety",
    "color": "Kolor",
    "placeholder_new_tag": "Wa\u017cny",
    "tooltip_vat_no_lookup": "Dowiedz si\u0119 informacji o klientach z bazy danych ARES",
    "flash_email_key_regenerated": "API resetowania e-mail",
    "btn_regenerate_email_key": "Resetowanie email API",
    "api_email_key": "API e-mail",
    "confirm_regenerate_api_email_key": "Czy na pewno chcesz zresetowa\u0107 API e-mail? We wszystkich aplikacjach, kt\u00f3re go u\u017cywaj\u0105, musz\u0105 to by\u0107 zresetowane.",
    "vehicle_price_purchase": "Cena zakupu",
    "vehicle_price_b2b": "Cena B2B",
    "flash_user_activated": "U\u017cytkownik zosta\u0142 aktywowany",
    "flash_user_deactivated": "U\u017cytkownik zosta\u0142 wy\u0142\u0105czony",
    "btn_user_activate": "Aktywowa\u0107",
    "btn_user_deactivate": "Dezaktywowa\u0107",
    "vehicle_price_sale": "Cena sprzeda\u017cy",
    "vehicle_not_advertised": "Eksportuj",
    "vehicle_menu_card": "Karta",
    "vehicle_menu_gallery": "Galeria",
    "vehicle_menu_advertising": "Reklama",
    "vehicle_menu_service": "Serwis",
    "vehicle_menu_balance": "Bilans",
    "btn_reserve_sell_vehicle": "Sprawd\u017a\/sprzeda\u0107 samoch\u00f3d",
    "service_contract_name": "Zam\u00f3wienie",
    "service_contract_price": "Cena",
    "service_contract_created": "Utworzono",
    "service_contract_due_date": "Termin realizacji",
    "service_contract_approved": "Zatwierdzony przez",
    "service_contract_done": "Gotowe",
    "service_contract_paid_by": "P\u0142atny",
    "label_service_entered_by": "Wprowadzone\/zlecone przez",
    "label_current_km": "Stan obecny km",
    "label_created": "Data utworzenia",
    "label_due_date": "Data produkcji",
    "label_assigned": "Przypisany do",
    "label_approved": "Zatwierdzone przez",
    "label_service_name": "Nazwa zam\u00f3wienia",
    "label_paid_by": "P\u0142atny",
    "label_desc_note": "Opis \/ uwagi",
    "btn_add_service_contract": "Utw\u00f3rz nowe zam\u00f3wienie.",
    "flash_service_approved": "Zatwierdzona umowa",
    "flash_service_not_approved": "Umowa nie jest zatwierdzona",
    "confirm_not_approve_service": "Naprawd\u0119 chcesz, aby ustawi\u0107 jako przestarza\u0142e?",
    "confirm_approve_service": "Czy na pewno chcesz, aby zatwierdzi\u0107 umow\u0119?",
    "flash_service_done": "I gotowe!",
    "flash_service_not_done": "Oferta jest oznaczona jako niekompletna",
    "flash_service_saved": "Zam\u00f3wienie jest zapisywane",
    "flash_error_service_not_approved": "Nie mo\u017cna zawrze\u0107 umowy przed jej zatwierdzeniem",
    "confirm_redirect_vehicle_advertising": "Nie masz \u017cadnych serwer\u00f3w reklamowania. Dlatego pojazd nie mo\u017cna reklamowa\u0107 w dowolnym miejscu. Aby wybra\u0107 serwery?",
    "confirm_delete_event": "Czy na pewno chcesz usun\u0105\u0107 to wydarzenie?",
    "flash_event_deleted": "Wydarzenie usuni\u0119te",
    "h3_vehicle_missing_params": "Ojej. Niekt\u00f3rych wymaganych informacji brakuje do reklamowania.",
    "h3_vehicle_missing_params_fulfill": "Prosimy o wype\u0142nienie w odpowiednich zak\u0142adkach.",
    "missing_kinds_id": "Typ pojazdu",
    "missing_brands_id": "Marka",
    "missing_models_id": "Model",
    "missing_specification": "Opis modelu",
    "missing_conditions_id": "Stan techniczny",
    "missing_price": "Cena sprzeda\u017cy",
    "missing_vin": "VIN",
    "missing_bodies_id": "Rodzaj nadwozia",
    "missing_kw": "Moc",
    "missing_ccm": "Pojemno\u015b\u0107",
    "missing_km": "Przebieg",
    "missing_date_made_month": "Miesi\u0105c produkcji",
    "missing_date_made_year": "Rok produkcji",
    "missing_states_id": "Kraj pochodzenia",
    "missing_fuels_id": "Paliwo",
    "missing_colors_id": "Kolor",
    "txt_missing_vehicle_photos": "Nie ma \u017cadnych zdj\u0119\u0107.",
    "txt_vehicle_this_missing": "Brakuje nast\u0119puj\u0105cych element\u00f3w:",
    "heading_sellers_sales": "Recenzowanie sprzedawc\u00f3w-sklep",
    "heading_sellers_crm": "Opinie sprzedawc\u00f3w-CRM",
    "heading_sources": "CRM - marketing",
    "heading_sales": "Sklep",
    "heading_vehicles": "Pojazdy",
    "vehicles_on_stock": "Liczba samochod\u00f3w w magazynie",
    "newly_created_vehicles": "Nowo dodane pojazdy",
    "last_week": "Min. tydzie\u0144",
    "percent_change": "Zmiana",
    "margin_achieved": "osi\u0105gane mar\u017ce",
    "share_in_percent": "udzia\u0142 w %",
    "sold_vehicles_count": "sprzedane samochody (PC)",
    "average_margin_per_car": "\u015brednia mar\u017ca za samoch\u00f3d ($)",
    "success_rate": "sukces",
    "success_fail_closed": "zako\u0144czone pomy\u015blnie\/bezskutecznie",
    "open_total_30_days": "ca\u0142kowicie otwarte\/otwarte d\u0142u\u017cej ni\u017c 30 dni",
    "average_case_execution_time": "\u015bredni czas przetwarzania sprawy",
    "demands_count": "liczba ofert",
    "turnover": "obroty (EUR)",
    "margin_without_recorded_costs": "mar\u017ca netto wydatk\u00f3w zapisanych (CZK)",
    "average_margin_percent": "\u015brednia mar\u017ca (%)",
    "average_time_on_stock": "\u015bredni czas w magazynie",
    "on_stock_till_30days": "liczba samochod\u00f3w w magazynie w ci\u0105gu 30 dni",
    "on_stock_over_30days": "liczba samochod\u00f3w w magazynie ponad 30 dni",
    "on_stock_over_90days": "liczba samochod\u00f3w w magazynie ponad 90 dni",
    "on_stock_over_180days": "liczba samochod\u00f3w w magazynie ponad 180 dni",
    "menu_crm_statistics": "Statystyki",
    "h1_crm_statistics": "Statystyki",
    "sw_key": "Oprogramowanie klucz",
    "invoice_item_vat_included": "zaw. VAT?",
    "invoice_item_price_without_vat": "cena bez VAT",
    "error_vehicle_image_small": "Robienie zdj\u0119\u0107 z minimaln\u0105 rozdzielczo\u015bci\u0105 1024x768px",
    "vehicle_print_card": "Kartka na szyb\u0119",
    "balance_item": "Element",
    "balance_price": "Ilo\u015b\u0107",
    "balance_diff_sale_purchase": "R\u00f3\u017cnica w zakupie\/sprzeda\u017cy",
    "balance_service_costs": "Koszt us\u0142ugi",
    "balance_add_item": "Dodaj element",
    "balance_result": "W wyniku",
    "menu_crm_demands_list": "Wykaz ofert",
    "menu_crm_demands_add": "Tworzenie popytu",
    "error_invalid_credentials": "Nie uda\u0142o si\u0119 zalogowa\u0107, poniewa\u017c dane nie s\u0105 prawid\u0142owe.",
    "h1_demands": "Zapytanie",
    "demand_id": "Liczba zapyta\u0144",
    "crm_btn_demand_create_case": "Utw\u00f3rz nowe zdarzenie handlowe",
    "crm_btn_close_demand": "Z\u0142o\u017cenie zam\u00f3wienia",
    "crm_menu_activity": "Ud\u00e1losti",
    "crm_menu_demand": "Szczeg\u00f3\u0142y zam\u00f3wienia",
    "crm_menu_customer": "Informacje o kliencie",
    "crm_menu_documents": "Archiwum dokument\u00f3w",
    "crm_menu_invoices": "Fakturach",
    "crm_menu_policies": "Gwarancja",
    "crm_menu_contracts": "Wzory um\u00f3w",
    "h1_cases": "Studium przypadku",
    "h2_add_new_demand": "Utworzenie nowej oferty",
    "crm_demand_name": "N\u00e1zev popt\u00e1vky",
    "h3_insurance": "Ubezpieczenie",
    "company": "Nazwa Firmy ",
    "warranty_list_overview": "Przegl\u0105d ",
    "warranty_list_details": "Szczeg\u00f3\u0142y",
    "btn_show_coverages": "Wyb\u00f3r program\u00f3w ubezpieczeniowych",
    "warranty_status_created_on": "Utworzono",
    "warranty_status_opened_on": "Potwierdzone",
    "tag_archived": "Archiwum",
    "tag_sold": "Sprzedany",
    "LumpSum": "Sk\u0142adka jednorazowa",
    "Annual": "Roczny",
    "Mis-Fuelling": "Tankowania niew\u0142a\u015bciwego paliwa",
    "MultiMedia and Sat\/Nav": "Multimedia i nawigacja satelitarna",
    "Rental Car Reimbursement": "Kompensacja wynajem?",
    "Trip Interruption": "Przerwy w podr\u00f3\u017cy",
    "Unlimited": "Bez ograniczenia",
    "Purchase_price": "Cena zakupu",
    "BANK_TRANSFER": "Przelew",
    "PAID_BY_DEALER": "P\u0142atne przez dealera",
    "PAID_TO_DEALER": "Zap\u0142acono sprzedawcy",
    "INDIVIDUAL": "Osoba fizyczna",
    "SOLE_PROPRIETOR": "Osoba fizyczna prowadz\u0105ca dzia\u0142alno\u015b\u0107",
    "BUSINESS": "Osoba prawna",
    "TERM": "Okres ubezpieczenia",
    "KM_LIMIT": "Limit km",
    "CLAIM_LIMIT": "Wysoko\u015bci odszkodowania",
    "DEDUCTIBLE": "Udzia\u0142 w\u0142asny",
    "Mr": "Pan",
    "Mrs": "Pani",
    "individual": "Osoba fizyczna",
    "sole_proprietor": "Samozatrudniony",
    "business": "Osoba prawna",
    "vehicle_sold": "Sprzedane!",
    "vehicle_created": "Pojazd powstaje",
    "vehicle_updated_price": "Cena dostosowana",
    "vehicle_updated_equips": "Dostosowanie sprz\u0119tu",
    "vehicle_updated_info": "Informacje zmodyfikowane",
    "vehicle_updated_photo": "Zdj\u0119cia zmodyfikowane",
    "vehicle_advertised": "Portale internetowe",
    "vehicle_unadvertised": "Pobierz z reklamy",
    "vehicle_deleted": "Usuni\u0119cie pojazdu",
    "vehicle_archived": "Archiwizowanie pojazdu",
    "crm_case_assigned": "Sprawa jest przypisana do",
    "crm_case_deleted": "Usuni\u0119cie",
    "crm_case_archived": "Sprawy archiwalne",
    "crm_add_attachment": "Uwagi dodane",
    "warranty_created": "Zamkni\u0119ta gwarancja!",
    "crm_event_new": "Nowa aktywno\u015b\u0107",
    "action_case_status_success": "Spraw\u0119 pomy\u015blnie zako\u0144czono",
    "action_case_status_open": "Sprawa otwarta",
    "action_case_status_fail": "Sprawa zamkni\u0119ta bezskutecznie",
    "vehicles_export_finish": "Eksport zako\u0144czony",
    "vehicles_export_error": "B\u0142\u0105d podczas eksportowania",
    "warranty_status_certified_on": "Wydawane",
    "warranty_status_canceled_on": "Anulowane",
    "menu_list": "Spis",
    "menu_dashboard": "Pulpit",
    "menu_vehicles": "Pojazdy",
    "menu_vehicles_archive": "Archiwum",
    "menu_vehicles_sold": "Sprzedany",
    "menu_crm": "CRM",
    "menu_crm_add_case": "Utw\u00f3rz wydarzenie",
    "menu_crm_customers": "Lista klient\u00f3w",
    "menu_warranties": "Ubezpieczenia",
    "menu_warranties_add": "Nowe",
    "menu_vehicles_draft": "Opracowywane",
    "menu_invoices": "Fakturowanie",
    "menu_invoices_add": "Utw\u00f3rz faktur\u0119",
    "menu_vehicles_add": "Nowy",
    "menu_crm_list": "Om\u00f3wienie przypadk\u00f3w",
    "menu_vehicles_list": "Lista",
    "menu_invoices_list": "Faktura przegl\u0105d",
    "menu_warranties_list": "Lista",
    "crm_case_status_fail": "Sprawa zamkni\u0119ta bezskutecznie",
    "crm_case_status_success": "Sprawa zako\u0144czona powodzeniem",
    "crm_case_status_open": "Sprawa ponownie",
    "crm_case_created": "Nowa sprawa",
    "todo_new": "Nowe zadanie",
    "followed_case_event": "Nowa aktywno\u015b\u0107",
    "menu_crm_todos": "Lista zada\u0144",
    "warranty_quote_created": "Utworzono ofert\u0119 gwarancji",
    "warranty_policy_created": "Zamkni\u0119ta gwarancja!",
    "placeholder_search_vehicles": "Znajd\u017a pojazd",
    "menu_setting": "Ustawienia",
    "menu_account_setting": "Ustawienia konta",
    "menu_logout": "Wyloguj",
    "h2_vehicles_draft": "Opracowanie pojazdu",
    "edit": "Edycja",
    "delete": "Usu\u0144",
    "p_vehicles_draft_empty": "Nie masz niedoko\u0144czonych pojazd\u00f3w",
    "h2_live_feed": "Wykonano",
    "h2_todos": "Zadania",
    "p_empty_todos": "Nie masz \u017cadnych zada\u0144",
    "todo_term": "Term\u00edn",
    "todo_created_date": "Zg\u0142oszony",
    "todo_fulfilled": "Osi\u0105gni\u0119te",
    "tooltip_show_case": "Gablota",
    "placeholder_wntbd": "Co robi\u0107?",
    "h1_crm": "CRM",
    "h1_activate_crm": "Aktywuj modu\u0142 CRM",
    "h1_add_customer": "Nowy klient",
    "h1_list_customers": "Lista klient\u00f3w",
    "submit_create": "Utworzy\u0107",
    "delete_customer": "Usu\u0144 klienta",
    "submit_save_changes": "Zapisz",
    "h3_related_cases": "Podobne przypadki",
    "add_customer": "Dodaj klienta",
    "label_search": "Szukaj",
    "customer": "Klient",
    "name": "Imi\u0119",
    "telephone": "Telefon",
    "email": "Email",
    "city": "Miasto",
    "h2_add_new_case": "Utw\u00f3rz nowe wydarzenie",
    "case_id": "sprawa ID",
    "case_menu_activity": "Dzia\u0142alno\u015b\u0107",
    "case_menu_demand": "Popyt",
    "case_menu_customer": "Klient",
    "case_menu_documents": "Dokumenty",
    "btn_sync_vehicles": "Eksport na portale",
    "vehicle_vin": "VIN",
    "vehicle_kind": "Typ pojazdu",
    "vehicle_brand": "Marka",
    "vehicle_model": "Model",
    "vehicle_specification": "Opis modelu",
    "vehicle_description": "Opis",
    "h3_vehicle_type": "Typ pojazdu",
    "h3_vehicle_price": "Cena samochodu",
    "vehicle_price": "Cena",
    "vehicle_price_note": "Uwaga: do ceny",
    "vehicle_vat": "Cena z VAT",
    "vehicle_vat_deductible": "Faktura VAT",
    "h3_vehicle_condition": "Stan pojazdu",
    "vehicle_condition": "Stan techniczny",
    "vehicle_state": "Kraj pochodzenia",
    "vehicle_service_book": "Ksi\u0105\u017cka serwisowa",
    "vehicle_first_owner": "Pierwszy w\u0142a\u015bciciel",
    "vehicle_crashed": "Uszkodzony",
    "vehicle_handicapted": "Wsparcie dla os\u00f3b niepe\u0142nosprawnych",
    "vehicle_tuning": "Tuning",
    "vehicle_date_made": "Data prod.",
    "vehicle_registered_date": "Data rejestracji",
    "vehicle_warranty_date": "Ubezpieczenie",
    "vehicle_stk_date": "Przegl\u0105d",
    "h3_vehicle_body": "Rodzaj nadwozia",
    "vehicle_body": "Rodzaj nadwozia",
    "vehicle_doors": "Liczba drzwi",
    "vehicle_seats": "Liczba miejsc",
    "vehicle_aircondition": "Klimatyzacja",
    "vehicle_airbags": "Liczba poduszek powietrznych",
    "h3_vehicle_color": "Kolor",
    "vehicle_color": "Kolor",
    "vehicle_color_type": "Rodzaj farby",
    "vehicle_color_tone": "Odcie\u0144",
    "h3_vehicle_engine": "Dane techniczne",
    "vehicle_fuel": "Paliwo",
    "vehicle_gearbox": "Skrzynia bieg\u00f3w",
    "vehicle_gearbox_auto_type": "Typ",
    "vehicle_gears_count": "Ilo\u015b\u0107 bieg\u00f3w",
    "vehicle_ccm": "Pojemno\u015b\u0107",
    "vehicle_kw": "Moc",
    "vehicle_consumption": "Zu\u017cycie",
    "tooltip_vehicle_consumption": "Zu\u017cycie jest obowi\u0105zkow\u0105 pozycj\u0105 reklamy nowego pojazdu na mobile.de",
    "vehicle_euro": "Normy emisji(spalin)",
    "tooltip_vehicle_euro": "Norma emisji jest obowi\u0105zkow\u0105 pozycj\u0105 podczas reklamy nowych pojazd\u00f3w mobile.de",
    "vehicle_km": "Przebieg",
    "h3_vehicle_photos": "Zdj\u0119cia",
    "h3_vehicle_advertise": "Og\u0142oszenia",
    "checkbox_select_vehicle_advertising_servers": "Zaznacz\/odznacz wszystko",
    "checkbox_vehicle_teas_xml": "Reklama za darmo na wszystkich serwerach.",
    "tooltip_generate_vin": "Generowanie VIN",
    "h3_vehicle_basic_info": "Podstawowe informacje",
    "yes": "tak",
    "no": "nie",
    "undefined": "Nieznany",
    "h3_vehicle_tech_info": "Informacje techniczne",
    "h3_vehicle_equips": "Wyposa\u017cenie",
    "vehicle_edit_gallery": "Edycja zdj\u0119\u0107",
    "tooltip_vehicle_photo_limit": "Zdj\u0119cia w rozmiarze 2 MB",
    "tooltip_sort_alpa_asc": "Sortuj alfabetycznie w kolejno\u015bci rosn\u0105cej",
    "tooltip_sort_alpa_desc": "Sortuj alfabetycznie w kolejno\u015bci malej\u0105cej",
    "tooltip_select_all": "Wybierz wszystkie",
    "tooltip_unselect_all": "Usu\u0144 wszystkie",
    "tooltip_delete_selected_photos": "Usu\u0144 zaznaczone zdj\u0119cia",
    "all": "Wszystkie",
    "nothing": "Nic",
    "new": "Nowy",
    "used_vehicle": "U\u017cywane",
    "year": "Rok",
    "vehicle_sort_name": "Nazwa",
    "vehicle_sort_advertised": "Do reklamowania",
    "vehicle_sort_created": "W magazynie",
    "vehicle_sort_date_made_year": "Rok",
    "vehicle_menu_select_servers": "Wybierz serwery reklamowe",
    "vehicle_menu_archive": "Archiwum",
    "vehicle_wizard_step_2": "Nadwozia i silnik",
    "vehicle_wizard_step_3": "Wyposa\u017cenie",
    "vehicle_wizard_step_4": "Galeria zdj\u0119\u0107",
    "vehicle_wizard_step_5": "Og\u0142oszenia",
    "vehicle_wizard_next": "Dalej",
    "vehicle_wizard_back": "Wstecz",
    "vehicle_wizard_finish": "Dodaj",
    "checkbox_select_unselect_all": "Zaznacz\/odznacz wszystko",
    "h1_create_vehicle": "Dodaj nowe",
    "vehicle_menu_print_card": "Drukowanie kart",
    "vehicle_menu_other_options": "Wi\u0119cej opcji",
    "vehicle_menu_price_history": "Kszta\u0142towanie si\u0119 cen",
    "vehicle_menu_sell": "Sprzedam",
    "vehicle_date_made_year ": "Rok prod.",
    "vehicle_for_advertisement ": "Do reklamowania",
    "vehicle_menu_create_copy": "Utw\u00f3rz kopi\u0119",
    "vehicle_menu_reserve": "Rezerwa",
    "vehicle_menu_check_vin": "Sprawd\u017a VIN",
    "vehicle_handicaped": "Wsparcie dla os\u00f3b niepe\u0142nosprawnych",
    "h2_vehicle_advertising_servers": "Wyb\u00f3r serwer\u00f3w reklamowych",
    "vehicle_menu_a4_l": "A4 poziomy",
    "vehicle_menu_a4_p": "A4 pionowy",
    "vehicle_menu_a3_l": "A3 poziomy",
    "vehicle_menu_a3_p": "A3 pionowy",
    "note": "Notatki",
    "vehicle_cancel_reservation": "Anulowanie rezerwacji",
    "vehicle_reserve_till": "Czy",
    "vehicle_menu_make_active": "Przenie\u015b do listy",
    "h3_extras": "Dodatkowe opcje",
    "claim_limit_b": "Pojedyncza szkoda",
    "claim_limit_a": "Limit odszkodowania",
    "deductible_limit": "Udzia\u0142 w\u0142asny",
    "h3_deductible\/claim": "Udzia\u0142 w\u0142asny",
    "km_limit": "Limit km",
    "h3_insurance_terms": "Warunki ubezpieczenia",
    "flash_crm_case_created": "Spraw\u0119 stworzy\u0142",
    "print_quote": "Propozycja Drukuj",
    "policy_options": "Opcje",
    "policy_paid": "Zap\u0142acono",
    "residency": "Siedziba",
    "contact": "Kontakt",
    "h3_acquisition": "Nabycie",
    "ins_term": "Okres ubezpieczenia",
    "vehicle_reg_no": "Numer rejestracyjny",
    "vat_reclaimable": "Stosuje si\u0119 odliczenie VAT",
    "policy_expiry_date": "Koniec ubezpieczenia",
    "policy_inception_date": "Rozpocz\u0119cie ubezpieczenia",
    "vehicle_prev_owners_no": "Liczba poprzednich w\u0142a\u015bcicieli",
    "notes": "Uwagi",
    "policy_premium": "Sk\u0142adka",
    "policy_created": "Utworzono",
    "h3_insured_policyholder": "Ubezpieczony \/ Ubezpieczaj\u0105cy",
    "policyholder": "Ubezpieczaj\u0105cy",
    "customer_title": "Klient (Pan\/Pani)",
    "id_no\/vat_no": "RC \/ ID",
    "customer_had_claims": "Poprzednie szkody GAP",
    "insured": "Ubezpieczony",
    "h3_policy_loadings": "Op\u0142aty",
    "h3_policy_extras": "Dodatkowe pokrycia",
    "sellers": "Sprzedawcy",
    "h3_base_branch_details": "Dane firmy",
    "vat_id": "Podatek",
    "name_title": "Nazwa",
    "country_region": "Wojew\u00f3dztwo",
    "logo": "Logo",
    "create_new_branch": "Utw\u00f3rz nowy oddzia\u0142",
    "h3_base_company_details": "Fundamentalne dane firmy",
    "h3_more_info": "Wi\u0119cej informacji",
    "owner": "W\u0142a\u015bciciel",
    "web": "Adres www",
    "contract_name": "Nazwa umowy",
    "create_new_contract_template": "Utw\u00f3rz nowy",
    "save_contract_template": "Zapisz szablon",
    "h3_idefend_credentials": "iDefend logowanie",
    "username": "Nazwa u\u017cytkownika",
    "password": "Has\u0142o",
    "login": "Login",
    "key": "Klucz",
    "customer_no": "Liczba klient\u00f3w",
    "create_new_user": "Tworzenie nowego u\u017cytkownika",
    "assigned_roles": "Okre\u015blona rola",
    "assigned_branches": "Przydzielony do oddzia\u0142u",
    "password_check": "Powt\u00f3rz has\u0142o",
    "msg_password_diff": "Has\u0142a nie s\u0105 identyczne",
    "msg_password_same": "Has\u0142a s\u0105 takie same",
    "photo": "Zdj\u0119cie",
    "h1_setting": "Ustawienia",
    "setting_menu_servers": "Serwery",
    "setting_menu_contracts_templates": "Szablony i dokumenty umowy",
    "setting_menu_idefend": "iDefend",
    "setting_menu_company": "Dane firmy",
    "setting_menu_branches": "Oddzia\u0142",
    "setting_menu_users": "U\u017cytkownicy",
    "h3_advanced_info": "Wi\u0119cej informacji",
    "h1_invoice_list": "Wykaz faktur",
    "invoice_paid_date": "Data p\u0142atno\u015bci",
    "no_short": "Nr",
    "invoice_payment_type": "Spos\u00f3b p\u0142atno\u015bci",
    "invoice_created_date": "Data wydania",
    "invoice_due_date": "Termin",
    "invoice_variable_symbol": "Symbol zmienny",
    "invoice_constant_symbol": "Sta\u0142y symbol",
    "invoice_item": "Element",
    "invoice_item_unit_price": "Cena \/ szt.",
    "invoice_item_quantity": "Liczba",
    "invoice_item_vat_rate": "Stawka podatku VAT",
    "invoice_item_vat": "VAT",
    "invoice_item_price": "Cena",
    "invoice_add_item": "Dodaj element",
    "invoice_price_without_vat": "Ca\u0142kowita bez VAT",
    "invoice_vat": "VAT",
    "invoice_total_price": "\u0141\u0105cznie do zap\u0142aty",
    "print_invoice": "Drukuj faktur\u0119",
    "clear_form": "Wyczy\u015b\u0107 formularz",
    "storno": "Anuluj",
    "invoice_mark_as_paid": "Oznacz jako zap\u0142acone",
    "tags": "Tagi",
    "source": "\u0179r\u00f3d\u0142a",
    "followers": "Obserwuj\u0105cy",
    "surname": "Nazwisko",
    "id_no": "PESEL\/NIP",
    "vat_no": "NIP",
    "bank_account_no": "Numer konta bankowego",
    "address": "Adres",
    "street": "Ulica, nr",
    "postal": "Kod pocztowy",
    "country": "Pa\u0144stwo",
    "placeholder_ex_skoda": "np. \u0160koda",
    "crm_case_name": "Nazwa sprawy",
    "text": "Tekst",
    "crm_case_added_by": "Wys\u0142any przez",
    "crm_case_created_by": "Stworzony przez",
    "keywords": "S\u0142owa kluczowe",
    "placeholder_crm_keywords": "benzyna hatchback czerwony",
    "last": "ostatnio",
    "vehicle": "Pojazd",
    "warranty": "Gwarancja",
    "contracts_documents": "Umowy i dokumenty",
    "billing": "Fakturowanie",
    "sale_complete": "Zako\u0144czenie sprzeda\u017cy",
    "btn_complete_sale": "Sprzeda\u017c,wyko\u0144czenie",
    "btn_download_documents": "Dokumenty do pobrania",
    "txt_sale_complete": "Proces sprzeda\u017cy jest zako\u0144czony. Kliknij przycisk Zako\u0144cz.Samoch\u00f3d jest nast\u0119pnie automatycznie pobierany z serwer\u00f3w reklamowych i przejd\u017a  do sekcji sprzedanych samochod\u00f3w.",
    "txt_sales_guide_desc": "Wykonaj kroki w celu rozwi\u0105zania realizacji zam\u00f3wienia",
    "h_sales_guide": "Przewodnik do sprzeda\u017cy",
    "invoice_sort_date": "Wydawane",
    "invoice_state": "Stan",
    "invoice_options": "Opcje",
    "h1_create_invoice": "Utw\u00f3rz faktur\u0119",
    "invoice_add": "Dodawanie faktury",
    "invoice_no": "Numer faktury",
    "month": "Miesi\u0105c",
    "week": "Tydzie\u0144",
    "without_vat": "bez VAT",
    "with_vat": "Cena z VAT",
    "vat_included?": "Okre\u015blona cena jest",
    "vehicle_purchase_price": "Cena zakupu pojazdu",
    "vehicle_purchase_date": "Data zakupu",
    "vehicle_odometer": "Przebieg",
    "vehicle_reg_date": "Data pierwszej rejestracji",
    "vehicle_mfg_warr_km": "Gwarancja producenta w km",
    "vehicle_mfg_warr_term": "Okres gwarancji producenta (miesi\u0105ce)",
    "engine_size": "Pojemno\u015b\u0107 silnika",
    "vehicle_model_derivative": "Typ pojazdu",
    "vehicle_model_name": "Model pojazdu",
    "payment_method": "Spos\u00f3b p\u0142atno\u015bci",
    "payment_term": "Rodzaj p\u0142atno\u015bci",
    "contract_no": "Umowa",
    "h3_contract": "Umowy",
    "print_contract": "Druk umowy",
    "dealer": "Sprzedawca",
    "vehicle_wizard_step_1": "Typ, cena, warunki",
    "vehicle_date_made_year": "Rok prod.",
    "h2_vehicle_price_history": "Cena rozwoju",
    "vehicle_for_advertisement": "Do reklamowania",
    "h1_dashboard": "Pulpit",
    "refund_paid_to": "Zap\u0142aty wynagrodzenia",
    "cancellation_refund": "Wymiana",
    "cancellation_reason": "Pow\u00f3d",
    "submit_confirm": "Potwierd\u017a",
    "submit_save_proposal": "Zapisz kalkulacje",
    "vehicle_mfg_inception": "Data rozpocz\u0119cia gwarancji producenta",
    "h3_login_details": "Informacje logowania",
    "h3_basic_info": "Podstawowe dane",
    "description": "Opis",
    "h1_warranty_list": "Lista polis ubezpieczenia",
    "h1_new_contract_proposal": "Oferta zawarcia ubezpieczenia",
    "beneficiary_is_insured": "Beneficjentem jest ubezpieczony",
    "beneficiary_is_coverholder": "Beneficjentem jest ubezpieczaj\u0105cy",
    "h3_select_warranty_type": "Prosz\u0119 wybra\u0107",
    "insured_is_coverholder": "Ubezpieczony jest ubezpieczaj\u0105cym",
    "invoice_canceled": "Odwo\u0142any",
    "invoice_paid": "P\u0142atne",
    "invoice_overdue": "Po up\u0142ywie odpowiedniego terminu!",
    "invoice_waiting_for_payment": "Oczekiwanie na op\u0142at\u0119",
    "flash_invoice_paid": "Zap\u0142acona faktura",
    "confirm_invoice_cancel": "Czy na pewno chcesz anulowa\u0107 faktur\u0119 nr.{{ no }}",
    "confirm_invoice_delete": "Czy na pewno chcesz usun\u0105\u0107 faktury nr.{{ no }}",
    "flash_invoice_canceled": "Faktura anulowana",
    "flash_invoice_deleted": "Faktura usuni\u0119ta",
    "vehicle_stock_days": "Liczba dni w magazynie",
    "flash_saved": "Zapisane",
    "flash_crm_case_params_vehicle_mismatch": "Parametry popytu nie pasuj\u0105 do \u017cadnego samochodu :(",
    "flash_crm_forgot_source": "Zapomnia\u0142e\u015b wybra\u0107 \u017ar\u00f3d\u0142o. Prosz\u0119 wybra\u0107 go z menu po prawej stronie.",
    "alert_forgot_crm_source": "Zapomnia\u0142e\u015b wybra\u0107 \u017ar\u00f3d\u0142o. Prosz\u0119 wybra\u0107 go z menu po prawej stronie.",
    "alert_forgot_case_name": "Wype\u0142nij nazw\u0119 marki lub modelu.",
    "confirm_delete_case": "Czy na pewno chcesz usun\u0105\u0107 ten przypadek?",
    "flash_case_deleted": "Sprawa zosta\u0142a usuni\u0119ta",
    "flash_case_closed": "Sprawa zosta\u0142a zamkni\u0119ta",
    "crm_show_prev_events": "Zobacz poprzednie wydarzenia ...",
    "date_created": "Utworzono",
    "term": "Term\u00edn",
    "event_users_assigned": "Okre\u015blony",
    "event_txt_added_file": "Dodano plik",
    "event_label_add_file": "Dodaj plik",
    "event_label_add_term": "Dodaj termin",
    "event_label_assign_user": "Przypisz zadania",
    "crm_btn_delete_case": "Usu\u0144 spraw\u0119",
    "crm_btn_go_sales_guide": "Przejd\u017a do sprzeda\u017cy",
    "crm_btn_case_unsuccessfully": "Bezskutecznie, aby zamkn\u0105\u0107",
    "crm_btn_reopen_case": "Otw\u00f3rz ponownie spraw\u0119",
    "bez klimatizace": "bez klimatyzacji",
    "\u010dty\u0159z\u00f3nov\u00e1 automatick\u00e1": "skrzynia automatyczna czterostrefowa",
    "dvouz\u00f3nov\u00e1 automatick\u00e1": "skrzynia automatyczna dwustrefowa",
    "manu\u00e1ln\u00ed": "manualna",
    "t\u0159\u00edz\u00f3nov\u00e1 automatick\u00e1": "skrzynia automatyczna trzystrefowa",
    "Bezpe\u010dnostn\u00ed a stabiliza\u010dn\u00ed syst\u00e9my": "Systemy bezpiecze\u0144stwa i stabilno\u015bci",
    "Zabezpe\u010den\u00ed": "Bezpiecze\u0144stwo",
    "Okna\/skla": "Okna\/szyby",
    "Sedadla": "Siedzenia",
    "St\u0159echa": "Dach",
    "Elektro za\u0159\u00edzen\u00ed": "Urz\u0105dzenia elektryczne",
    "Vn\u011bj\u0161\u00ed vybaven\u00ed": "Wyposa\u017cenie zewn\u0119trzne",
    "Vnit\u0159n\u00ed vybaven\u00ed": "Wn\u0119trze",
    "Tunning": "Tuning",
    "Pohon": "Nap\u0119d",
    "Ostatn\u00ed": "Inny",
    "v\u00edce ne\u017e 7": "wi\u0119cej ni\u017c 7",
    "hatchback": "hatchback",
    "sedan\/limuz\u00edna": "sedan\/limuzyna",
    "kabriolet": "kabriolet",
    "kup\u00e9": "coupe",
    "kombi": "kombi",
    "VAN": "VAN",
    "MPV": "MPV",
    "SUV": "SUV",
    "pick-up": "pick-up",
    "u\u017eitkov\u00e9": "furgon",
    "minibus": "minibus",
    "taha\u010d": "ci\u0105gnik",
    "valn\u00edk": "valn\u00edk",
    "skl\u00e1p\u011b\u010d": "wywrotka",
    "sk\u0159\u00ed\u0148": "gabinet",
    "chladic\u00ed\/mraz\u00edc\u00ed": "ch\u0142odnictwo \/ zamra\u017carka",
    "cisterna": "zbiornik",
    "n\u00e1stavba": "rozbudowa",
    "m\u011bstsk\u00fd": "miejski",
    "p\u0159\u00edm\u011bstsk\u00fd": "podmiejski",
    "d\u00e1lkov\u00fd": "zdalny",
    "obytn\u00fd": "mieszkaniowy",
    "moped": "motorower",
    "sk\u00fatr": "skuter",
    "nakedbike": "nakedbike",
    "silni\u010dn\u00ed": "droga",
    "enduro": "enduro",
    "ter\u00e9nn\u00ed": "krajobraz",
    "chopper": "chopper",
    "obytn\u00fd v\u016fz": "przyczepa kempingowa",
    "obytn\u00fd p\u0159\u00edv\u011bs": "przyczepa",
    "ostatn\u00ed": "inny",
    "bagr": "koparka",
    "autoje\u0159\u00e1b": "d\u017awig",
    "buldozer": "spychacz",
    "fr\u00e9za": "frez",
    "kombajn": "kombajn",
    "naklada\u010d kolov\u00fd": "\u0142adowarka ko\u0142owa",
    "naklada\u010d p\u00e1sov\u00fd": "\u0142adowarka g\u0105sienicowa",
    "rypadlo kolov\u00e9": "koparka ko\u0142owa",
    "rypadlo p\u00e1sov\u00e9": "koparka g\u0105sienicowa",
    "rypadlo mini": "minikoparka",
    "traktor": "ci\u0105gnik",
    "v\u00e1lec": "cylinder",
    "vysokozdvi\u017en\u00fd voz\u00edk": "w\u00f3zki wid\u0142owe",
    "\u010dty\u0159kolka": "ATV (quad)",
    "nosi\u010d kontejner\u016f": "transport kontener\u00f3w",
    "podvaln\u00edk": "przyczepa",
    "kontejner": "kontener",
    "speci\u00e1ln\u00ed n\u00e1stavba": "specjalna konstrukcja no\u015bna",
    "v\u016fz na ND": "samoch\u00f3d w ND",
    "tuning": "tuning",
    "interi\u00e9rov\u00e9 p\u0159\u00edslu\u0161enstv\u00ed": "wyposa\u017cenie wn\u0119trz",
    "disky, pneu": "tarcze, opony",
    "st\u0159e\u0161n\u00ed nosi\u010de, boxy": "baga\u017cniki dachowe, pude\u0142ka",
    "motor": "silnik",
    "karoserie": "rodzaj nadwozia",
    "ostatn\u00ed p\u0159\u00edslu\u0161enstv\u00ed": "inne akcesoria",
    "rypadlo naklada\u010d": "koparko-\u0142adowarki",
    "odtahov\u00fd v\u016fz": "holownik serwisowy",
    "liftback": "liftback",
    "mal\u00e9 moto": "ma\u0142e moto",
    "sn\u011b\u017en\u00fd sk\u00fatr": "skuter \u015bnie\u017cny",
    "vodn\u00ed sk\u00fatr": "skutery wodne",
    "sidecar": "bok samochodu",
    "elektromotorka": "rower elektryczny",
    "t\u0159\u00edkolka": "tr\u00f3jko\u0142owy",
    "motok\u00e1ra": "mapa",
    "brzdy": "hamulce",
    "podvozek": "podwozie",
    "\u0161asi": "podwozie",
    "skla, sv\u011btla": "szk\u0142o, \u015bwiat\u0142o",
    "elektro za\u0159\u00edzen\u00ed": "sprz\u0119t elektryczny",
    "bezpe\u010dnost": "bezpiecze\u0144stwo",
    "chlazen\u00ed, vyh\u0159\u00edv\u00e1n\u00ed": "ch\u0142odnictwo, ogrzewanie",
    "veter\u00e1ni": "zabytkowe",
    "zahradn\u00ed traktor": "traktor ogrodowy",
    "paletov\u00fd voz\u00edk": "W\u00f3zki paletowe",
    "seka\u010dka": "kosiarka",
    "p\u0159\u00edv\u011bs do 750 kg": "przyczepa do 750 kg",
    "p\u0159\u00edv\u011bs nad 750 kg": "przyczepy powy\u017cej 750 kg",
    "n\u00e1v\u011bs": "przyczepa",
    "roadster": "teren\u00f3wka",
    "CUV": "CUV",
    "sv\u011btl\u00e1": "\u015bwiat\u0142o",
    "tmav\u00e1": "ciemny",
    "z\u00e1kladn\u00ed": "podstawowy",
    "metal\u00edza": "metaliczny",
    "f\u00f3lie": "folia",
    "pastelov\u00e1": "pastel",
    "perle\u0165ov\u00e1": "per\u0142owy",
    "b\u00edl\u00e1": "bia\u0142y",
    "\u017elut\u00e1": "\u017c\u00f3\u0142ty",
    "oran\u017eov\u00e1": "pomara\u0144czowy",
    "\u010derven\u00e1": "czerwony",
    "v\u00ednov\u00e1": "wino",
    "r\u016f\u017eov\u00e1": "r\u00f3\u017cowy",
    "fialov\u00e1": "fioletowy",
    "modr\u00e1": "niebieski",
    "zelen\u00e1": "zielony",
    "hn\u011bd\u00e1": "br\u0105zowy",
    "\u0161ed\u00e1": "szary",
    "\u010dern\u00e1": "czarny",
    "b\u00e9\u017eov\u00e1": "be\u017cowy",
    "st\u0159\u00edbrn\u00e1": "srebrny",
    "zlat\u00e1": "z\u0142oto",
    "jin\u00e1": "inny",
    "nov\u00e9": "nowy",
    "ojet\u00e9": "u\u017cywane",
    "havarovan\u00e9": "uszkodzony",
    "p\u0159edv\u00e1d\u011bc\u00ed": "salon",
    "veter\u00e1n": "zabytkowy",
    "automatick\u00e1 p\u0159evodovka": "automatyczna skrzynia bieg\u00f3w",
    "manu\u00e1ln\u00ed p\u0159evodovka": "manualna skrzynia bieg\u00f3w",
    "ko\u017een\u00e9 \u010daloun\u011bn\u00ed": "sk\u00f3rzana tapicerka",
    "imobiliz\u00e9r": "immobiliser",
    "naviga\u010dn\u00ed syst\u00e9m": "system nawigacji",
    "st\u0159e\u0161n\u00ed okno": "szyberdach",
    "centr\u00e1ln\u00ed zamyk\u00e1n\u00ed": "centralny zamek",
    "ABS": "ABS",
    "el": {
        " ovl\u00e1d\u00e1n\u00ed zrc\u00e1tek": "el. lusterka",
        " start\u00e9r": "el. rozrusznik",
        " ovl\u00e1d\u00e1n\u00ed oken": "el. okna",
        " se\u0159iditeln\u00e1 sedadla": "el. siedzenia"
    },
    "ESP": "ESP",
    "lit\u00e1 kola": "felgi aluminiowe",
    "tempomat": "tempomat",
    "z\u00e1ruka": "gwarancja",
    "alarm": "alarm",
    "alarm s d\u00e1lkov\u00fdm ovl\u00e1d\u00e1n\u00edm": "alarm z pilotem",
    "d\u00e1lkov\u00e9 centr\u00e1ln\u00ed zamyk\u00e1n\u00ed": "zamek centralny z pilotem",
    "bezpe\u010dnostn\u00ed p\u00edskov\u00e1n\u00ed oken": "bezpiecze\u0144stwo systemu Windows przed wybuchem",
    "LPG v TP": "LPG w TP",
    "multifunk\u010dn\u00ed volant": "wielofunkcyjna kierownica",
    "autor\u00e1dio": "radio",
    "palubn\u00ed po\u010d\u00edta\u010d": "komputer pok\u0142adowy",
    "parkovac\u00ed asistent": "asystent parkowania",
    "posilova\u010d \u0159\u00edzen\u00ed": "wspomaganie kierownicy",
    "p\u0159\u00eddavn\u00e1 sv\u011btla": "dodatkowe \u015bwiat\u0142a",
    "nastaviteln\u00e1 sedadla": "regulowane fotele",
    "nastaviteln\u00fd volant": "regulowana kierownica",
    "st\u0159e\u0161n\u00ed nosi\u010d": "baga\u017cnik dachowy",
    "t\u00f3novan\u00e1 skla": "przyciemniane szyby",
    "vyh\u0159\u00edvan\u00e1 zrc\u00e1tka": "podgrzewane lusterka",
    "vyh\u0159\u00edvan\u00e9 \u010deln\u00ed sklo": "podgrzewana przednia szyba",
    "vyh\u0159\u00edvan\u00e1 sedadla": "podgrzewane fotele",
    "xenony": "xenony",
    "z\u00e1mek \u0159ad\u00edc\u00ed p\u00e1ky": "d\u017awignia blokady biegu",
    "z\u00e1v\u011bsn\u00e9 za\u0159\u00edzen\u00ed v TP": "zaczep w TP",
    "no\u017en\u00ed start\u00e9r": "rozrusznik no\u017cny",
    "vari\u00e1tor": "wariator",
    "katalyz\u00e1tor": "katalizator",
    "plexi \u0161t\u00edt": "przednia szyba",
    "p\u0159\u00edprava pro autor\u00e1dio": "przygotowanie do radia",
    "kazetov\u00fd p\u0159ehr\u00e1va\u010d": "magnetofon kasetowy",
    "CD p\u0159ehr\u00e1va\u010d": "odtwarzacz CD",
    "CD m\u011bni\u010d": "zmieniarka CD",
    "televize": "telewizja",
    "p\u0159ehr\u00e1va\u010d videa": "odtwarzacz wideo",
    "1 monitor": "1 monitor",
    "2 monitory": "2 monitory",
    "3 monitory": "3 monitory",
    "4 monitory": "4 monitory",
    "telefon": "telefon",
    "p\u0159\u00edprava pro telefon": "przygotowanie do telefonu",
    "CB vys\u00edla\u010dka": "CB radio",
    "mikrofon": "mikrofon",
    "zaslepen\u00ed z\u00e1mk\u016f": "blokada za\u015blepiaj\u0105ca",
    "otev\u00edrateln\u00e1 st\u0159echa": "otwierany dach",
    "ski box": "baga\u017cnik na narty",
    "ost\u0159ikova\u010de sv\u011btlomet\u016f": "spryskiwacze reflektor\u00f3w",
    "ochrann\u00e9 r\u00e1my": "klatki ochronne",
    "st\u0159e\u0161n\u00ed spoiler": "spoiler dachowy",
    "zadn\u00ed st\u011bra\u010d": "wycieraczka tylnej szyby",
    "chladni\u010dka": "lod\u00f3wka",
    "k\u00e1vovar": "ekspres do kawy",
    "mikrovln\u00e1 trouba": "mikrofalowy",
    "WC": "ubikacja",
    "oh\u0159\u00edva\u010d vody": "podgrzewacz wody",
    "z\u00e1suvka na 220 V": "gniazdko 220 V",
    "nez\u00e1visl\u00e9 topen\u00ed": "niezale\u017cne ogrzewanie",
    "nez\u00e1visl\u00e9 topen\u00ed s \u010das": {
        " p\u0159edeh\u0159\u00edva\u010dem": "niezale\u017cne ogrzewanie z czasem. podgrzewacz"
    },
    "vyj\u00edmateln\u00e1 zadn\u00ed sedadla": "wyjmowane tylne siedzenia",
    "p\u0159\u00edprava pro ISOFIX": "przygotowanie do ISOFIX",
    "s\u00ed\u0165ka mezist\u011bny zavazadlov\u00e9ho prostoru": "krata",
    "sportovn\u00ed sedadla": "sportowe fotele",
    "v\u00fd\u0161kov\u011b nastaviteln\u00e1 sedadla": "regulacja wysoko\u015bci fotela",
    "pod\u00e9ln\u00fd posuv sedadel": "przesuni\u0119cie wzd\u0142u\u017cne siedzenia",
    "sedadla v\u00fdsuvn\u00e1 do uli\u010dky": "rozszerzenie do foteli",
    "v\u00fdsuvn\u00e9 op\u011brky hlav": "wysuwane zag\u0142\u00f3wki",
    "ko\u017een\u00e9 potahy": "sk\u00f3rzana tapicerka",
    "d\u0159ev\u011bn\u00e9 oblo\u017een\u00ed": "drewniane ok\u0142adziny",
    "satelitn\u00ed navigace": "nawigacja satelitarna",
    "ta\u017en\u00e9 za\u0159\u00edzen\u00ed": "zaczep",
    "EDS": "EDS",
    "senzor st\u011bra\u010d\u016f": "Wycieraczka tylnej szyby",
    "pohon 4 x 4": "nap\u0119d 4x4",
    "pohon 6 x 4": "nap\u0119d 6 x 4",
    "pohon 6 x 6": "nap\u0119d 6 x 6",
    "pohon 8 x 4": "nap\u0119d 8 x 4",
    "pohon 8 x 8": "nap\u0119d 8 x 8",
    "ot\u00e1\u010dkom\u011br": "tachometr",
    "sportovn\u00ed podvozek": "sportowe zawieszenie",
    "lad\u011bn\u00fd v\u00fdfuk": "t\u0142umik",
    "1 x l\u016f\u017eko": "1 x \u0142\u00f3\u017cko",
    "2 x l\u016f\u017eko": "2 x \u0142\u00f3\u017cko",
    "hydraulika pro skl\u00e1p\u011bn\u00ed": "hydraulika pochylania",
    "jednoduch\u00e1 n\u00e1dr\u017e do 400 l nafty": "prosty zbiornik do 400 litr\u00f3w oleju nap\u0119dowego",
    "dvojit\u00e1 n\u00e1dr\u017e do 800 l nafty": "podw\u00f3jny zbiornik do 800 l oleju nap\u0119dowego",
    "intard\u00e9r": "intarder",
    "retard\u00e9r": "retarder",
    "d\u00e1lkov\u00fd start": "zdalne uruchamianie",
    "6 rychlostn\u00edch stup\u0148\u016f": "6 bieg\u00f3w",
    "protiprokluzov\u00fd syst\u00e9m kol (ASR)": "regulacja po\u015blizgu (ASR)",
    "v\u00fdbava ADR": "wyposa\u017cenie ADR",
    "uz\u00e1v\u011brka mezin\u00e1pravov\u00e9ho diferenci\u00e1lu": "o\u015b mechanizmu r\u00f3\u017cnicowego",
    "venkovn\u00ed teplom\u011br": "termometr na zewn\u0105trz",
    "vnit\u0159n\u00ed teplom\u011br": "wewn\u0119trzny termometr",
    "airbrush": "natryskiwacz",
    "pad\u00e1ky": "spadochrony",
    "kufry": "walizki",
    "bra\u0161ny": "torby",
    "vzduchov\u00e9 ovl\u00e1d\u00e1n\u00ed dve\u0159\u00ed": "regulacja powietrza?",
    "regulace v\u00fd\u0161ky podvozku": "regulacja wysoko\u015bci podwozia",
    "regulace tuhosti podvozku": "regulacja sztywno\u015bci podwozia",
    "tlumi\u010d \u0159\u00edzen\u00ed": "amortyzator uk\u0142adu kierowniczego",
    "konven\u010dn\u00ed odpru\u017een\u00ed": "konwencjonalne zawieszenie",
    "vzduchov\u00e9 odpru\u017een\u00ed": "zawieszenie pneumatyczne",
    "tachograf": "tachograf",
    "navij\u00e1k": "wci\u0105garka",
    "airbag": "poduszka powietrzna",
    "poloautomatick\u00e1 p\u0159evodovka": "p\u00f3\u0142automatyczne",
    "pohon 4 x 2": "nap\u0119d 4 x 2",
    "pohon 6 x 2": "nap\u0119d 6 x 2",
    "kabina trambusov\u00e1": "kabina nad silnikiem",
    "kabina kapotovan\u00e1": "kabina nad mask\u0105?",
    "mlhovky": "\u015bwiat\u0142a przeciwmgielne",
    "zadn\u00ed mlhovka": "tylne \u015bwiat\u0142o przeciwmgielne",
    "uz\u00e1v\u011brka zadn\u00edho diferenci\u00e1lu": "r\u00f3\u017cnicowa tylnych dyferencja\u0142\u00f3w",
    "uz\u00e1v\u011brka p\u0159edn\u00edho diferenci\u00e1lu": "przedni dyferencja\u0142 blokuj\u0105cy",
    "bo\u010dn\u00ed n\u00e1\u0161lapy": "stopnie boczne",
    "\u0161norchl": "rurka do nurkowania",
    "s couvac\u00edm sv\u011btlem": "\u015bwiat\u0142o cofania",
    "vidlice 7-pol": "wid\u0142y 7-pol",
    "vidlice 13-pol": "wid\u0142y 13-pol",
    "op\u011brn\u00e9 kole\u010dko": "ko\u0142o podporowe",
    "op\u011brn\u00e9 nohy": "nogi podporowe",
    "plachta": "\u017cagiel",
    "lamin\u00e1tov\u00e9 v\u00edko": "laminat",
    "kotv\u00edc\u00ed oka": "kotwica",
    "rezervn\u00ed kolo": "ko\u0142o zapasowe",
    "zakl\u00e1dac\u00ed kl\u00edny": "kliny",
    "nebrzd\u011bn\u00fd": "hamowanie",
    "brzd\u011bn\u00fd": "przeciwdzia\u0142a\u0107",
    "trubkov\u00e1\/jeklov\u00e1 oj": "rury\/???",
    "\"V\" oj": "\"W\" OU",
    "v\u00fd\u0161kov\u011b staviteln\u00e1 oj": "dyszel z regulacj\u0105 wysoko\u015bci",
    "p\u0159ekli\u017ekov\u00e9 bo\u010dnice": "boki sklejek",
    "plechov\u00e9 bo\u010dnice": "boczne panele z blachy stalowej",
    "hlin\u00edkov\u00e9 bo\u010dnice": "boki aluminiowe",
    "bez bo\u010dnic": "bez bok\u00f3w",
    "Start\/Stop syst\u00e9m": "system Start \/ Stop",
    "asistent rozjezdu do kopce": "asystent podjazdu",
    "parkovac\u00ed senzory": "czujniki parkowania",
    "isofix": "isofix",
    "panoramatick\u00e1 st\u0159echa": "panoramiczny dach",
    "bezkl\u00ed\u010dkov\u00e9 ovl\u00e1d\u00e1n\u00ed": "kontrola??",
    "r\u00e1dio": "radio",
    "origin\u00e1l autor\u00e1dio": "oryginalny d\u017awi\u0119k",
    "d\u011blen\u00e1 zadn\u00ed sedadla": "regulowana kierownica",
    "regulace p\u0159i j\u00edzd\u011b ze svahu": "regulacja podczas jazdy z g\u00f3rki",
    "klimatizovan\u00e1 p\u0159ihr\u00e1dka": "klimatyzowana kabina",
    "v\u00fd\u0161kov\u011b nastaviteln\u00e9 sedadlo \u0159idi\u010de": "regulacja wysoko\u015bci fotela kierowcy",
    "automatick\u00e1 uz\u00e1v\u011brka diferenci\u00e1lu": "automatyczna przednia szyba",
    "deaktivace airbagu spolujezdce": "dezaktywacja poduszek powietrznych pasa\u017cera z przodu",
    "ko\u017een\u00e1 sedadla": "sk\u00f3rzane siedzenia",
    "LED denn\u00ed sv\u00edcen\u00ed": "\u015bwiat\u0142a do jazdy dziennej LED",
    "benz\u00edn": "benzyna",
    "CNG": "CNG",
    "elektro": "elektro",
    "ethanol": "etanol",
    "hybridn\u00ed": "hybryda",
    "jin\u00e9": "inny",
    "LPG": "LPG",
    "nafta": "olej",
    "poloautomatick\u00e1": "p\u00f3\u0142automatyczna",
    "automatick\u00e1": "automatyczna",
    "autobusy": "autobusy",
    "\u010dty\u0159kolky": "quady",
    "motocykly": "motocykle",
    "n\u00e1hradn\u00ed d\u00edly a p\u0159\u00edslu\u0161enstv\u00ed": "cz\u0119\u015bci i akcesoria",
    "n\u00e1kladn\u00ed": "fracht",
    "obytn\u00e9": "mieszkalny",
    "osobn\u00ed": "osobowy",
    "pracovn\u00ed stroje": "maszyny robocze",
    "p\u0159\u00edv\u011bsy, n\u00e1v\u011bsy": "przyczepy, naczepy",
    "u\u017eitkov\u00fd": "Dostawczy",
    "\u010cesk\u00e1 Republika": "Czechy",
    "Slovensk\u00e1 Republika": "Republika S\u0142owacka",
    "Francie": "Francja",
    "It\u00e1lie": "W\u0142ochy",
    "N\u011bmecko": "Niemcy",
    "Rakousko": "Austria",
    "\u0160v\u00fdcarsko": "Szwajcaria",
    "Holandsko": "Holandia",
    "Lucembursko": "Luksemburg",
    "Jin\u00e1": "Inny",
    "Belgie": "Belgia",
    "\u0160pan\u011blsko": "Hiszpania",
    "D\u00e1nsko": "Dania",
    "Nedohledateln\u00fd p\u016fvod": "Niezidentyfikowane pochodzenie",
    "USA": "USA",
    "flash_contact_form_submitted": "Dzi\u0119kujemy za wiadomo\u015b\u0107. Nasi sprzedawcy skontaktuj\u0105 si\u0119 z Tob\u0105 tak szybko, jak to mo\u017cliwe.",
    "mail_question_body": "wys\u0142ali\u015bmy zapytanie z formularza WWW",
    "mail_vehicle_detail_question_body": "wys\u0142ali\u015bmy pro\u015bb\u0119 o poje\u017adzie",
    "mail_question": "Zapytanie z formularza WWW",
    "mail_vehicle_detail_question": "Pytanie do samochodu"
}