{
    "txt_templates": "\u0160ablony",
    "btn_overwrite": "P\u0159epsat",
    "btn_select": "Vybrat",
    "confirm_delete_template": "Opravdu chcete smazat vybranou \u0161ablonu?",
    "confirm_overwrite_template": "Opravdu chcete p\u0159epsat text vybran\u00e9 \u0161ablony?",
    "h3_others": "Inni",
    "vehicle_card_footer_text": "Vlastn\u00ed text v pati\u010dce karty vozu",
    "txt_continue_as": "Pokra\u010dovat jako",
    "vehicle_import_status": "Stav importu",
    "vehicle_load_capacity": "Nosnost",
    "title_export_vehicles_list": "Portale",
    "menu_vehicles_export": "Portale",
    "export_on_allegro": "Eksportuj na allegro",
    "title_export_status": "Status eksportu",
    "menu_export_status": "Status eksportu",
    "vehicle_export_status": "Status eksportu",
    "setting_menu_portals": "Nastaven\u00ed inzerce",
    "vehicle_custom_id": "\u010c. vozu",
    "vehicle_keys": "\u010c. kl\u00ed\u010de",
    "owner_is_coverholder": "Ubezpieczony jest W\u0142a\u015bcicielem Pojazdu",
    "vehicle_visible_on_web": "Zobrazeno na web",
    "vehicle_not_visible_on_web": "Skryto na webu",
    "vehicle_create_warranty": "Ubezpiecz",
    "settings_menu_portals": "Konfigurace exportn\u00edch port\u00e1l\u016f",
    "close": "Zav\u0159\u00edt",
    "btn_configure": "Konfigurovat",
    "info": "Info",
    "configuration": "Konfigurace",
    "portal_catalog": "Katalog",
    "portal_key": "Kl\u00ed\u010d",
    "portal_code": "K\u00f3d",
    "export_on_portals": "Export na port\u00e1ly",
    "export_on_otomoto": "Export na Otomoto",
    "submit_search": "Vyhledat",
    "title_vehicle_search": "Filtrace vozidel",
    "btn_reset_form": "Reset",
    "defend_customer_type": "Typ",
    "vehicle_is_driving_right": "\u0158\u00edzen\u00ed v pravo",
    "vehicle_is_registered_in_poland": "Registrov\u00e1no v polsku",
    "vehicle_is_serviced_in_aso": "Servisov\u00e1no v autorizovan\u00e9m servisu",
    "vehicle_is_crashed": "Havarov\u00e1no",
    "vehicle_is_truck_homologation": "Truck homologace",
    "vehicle_is_price_negotiable": "Smlouvat",
    "vehicle_is_credit_possible": "\u00dav\u011br",
    "vehicle_is_leasing_possible": "Leasing",
    "vehicle_leasing_initial_charge": "Vstupn\u00ed poplatek",
    "vehicle_leasing_monthly_rate": "M\u011bs\u00ed\u010dn\u00ed spl\u00e1tka",
    "vehicle_leasing_remaining_installments": "Zb\u00fdvaj\u00edc\u00edch spl\u00e1tek",
    "vehicle_leasing_redemption_value": "V\u00fdkupn\u00ed hodnota",
    "vehicle_solid_particles_filter": "Filtr pevn\u00fdch \u010d\u00e1stic",
    "vehicle_co2_emissions": "Emise CO2",
    "vehicle_drive_type": "Pohon",
    "vehicle_color_metallic": "Metal\u00edza",
    "vehicle_type": "Typ vozidla",
    "vehicle_model_version": "Verze modelu",
    "vehicle_menu_activate": "P\u0159esunout do aktivn\u00edho seznamu",
    "vehicle_activated": "Vozidlo bylo p\u0159esunuto do aktivn\u00edho seznamu",
    "btn_show_all_cars": "Zobrazit v\u0161echna auta",
    "title_top_offers": "Nejlep\u0161\u00ed nab\u00eddky",
    "title_choose_new_car": "Vyberte si Va\u0161e nov\u00e9 auto",
    "btn_filter_vehicles": "Zobrazit vozidla",
    "title_our_cars": "Na\u0161e vozidla",
    "btn_interested": "M\u00e1m z\u00e1jem",
    "title_similar_cars": "Podobn\u00e9 vozidla",
    "title_interested": "M\u00e1te z\u00e1jem?",
    "title_our_team": "N\u00e1\u0161 t\u00fdm",
    "title_send_message": "Po\u0161lete n\u00e1m zpr\u00e1vu",
    "message": "Zpr\u00e1va",
    "submit_send": "Odeslat",
    "\u0158ada 1": "\u0158ada 1",
    "\u0158ada 3": "\u0158ada 3",
    "\u0158ada 4": "\u0158ada 4",
    "\u0158ada 5": "\u0158ada 5",
    "\u0158ada 6": "\u0158ada 6",
    "\u0158ada 7": "\u0158ada 7",
    "btn_cancel": "Zru\u0161it",
    "h3_idefend_defaults": "V\u00fdchoz\u00ed nastaven\u00ed",
    "customer_type": "Typ klienta",
    "greeting_1": "Ahoj",
    "greeting_2": "Nazdar",
    "greeting_3": "Dobr\u00fd den",
    "greeting_4": "Hezk\u00fd den",
    "vehico_claim": "efektivn\u00ed prodej aut",
    "email_signature": "S pozdravem,<br><i>T\u00fdm aplikace Vehico<\/i>",
    "mail_registration_body": "registrace do aplikace Vehico prob\u011bhla \u00fasp\u011b\u0161n\u011b. V\u00edt\u00e1me V\u00e1s a p\u0159ejeme, aby V\u00e1m Vehico dob\u0159e slou\u017eilo.",
    "mail_password_lost_body": "nevad\u00ed, \u017ee si nem\u016f\u017eete vzpomenout na sv\u00e9 p\u0159\u00edstupov\u00e9 heslo do aplikace Vehico. Kliknut\u00edm na n\u00e1sleduj\u00edc\u00ed odkaz si nastavte heslo nov\u00e9.",
    "mail_password_recovery_body": "Va\u0161e heslo pro p\u0159\u00edstup do aplikace Vehico bylo zm\u011bn\u011bno. Heslo m\u016f\u017eete kdykoliv m\u011bnit v nastaven\u00ed \u00fa\u010dtu p\u0159\u00edmo v aplikaci Vehico.",
    "mail_registration_subject": "Dokon\u010den\u00ed registrace",
    "mail_password_lost_subject": "Zapomenut\u00e9 heslo",
    "mail_password_recovery_subject": "Va\u0161e heslo bylo zm\u011bn\u011bno",
    "title_registration": "Registrace do aplikace",
    "title_registration_registration_step1": "V\u00edtejte v registraci, zde si jednodu\u0161e vytvo\u0159\u00edte V\u00e1\u0161 p\u0159\u00edstupov\u00fd \u00fa\u010det.",
    "title_registration_registration_step2": "N\u011bkter\u00e9 \u00fadaje jsme se pokusili vyplnit za V\u00e1s. Zkontrolujte pros\u00edm, zda jsou spr\u00e1vn\u011b.",
    "title_registration_registration_step3": "A je\u0161t\u011b posledn\u00ed d\u016fle\u017eit\u00e1 v\u011bc - p\u0159\u00edstupov\u00e9 \u00fadaje k va\u0161emu \u00fa\u010dtu.",
    "msg_error_no_data_for_vat_id": "Pro zadan\u00e9 I\u010c jsme nena\u0161li \u017e\u00e1dn\u00e9 \u00fadaje.",
    "msg_error_ares_unreachable": "Nepoda\u0159ilo se n\u00e1m p\u0159ipojit do datab\u00e1ze ARES k z\u00edsk\u00e1n\u00ed firemn\u00edch \u00fadaj\u016f.",
    "label_country": "Zem\u011b",
    "label_company_vat_id": "Zadejte I\u010c va\u0161\u00ed firmy",
    "msg_error_company_vat_id_registered": "Firma se stejn\u00fdm I\u010c je ji\u017e zaregistrov\u00e1na",
    "submit_continue": "Pokra\u010dovat",
    "company_name": "N\u00e1zev firmy",
    "owner_name": "Jm\u00e9no majitele",
    "branch_name": "N\u00e1zev pobo\u010dky",
    "label_region": "Kraj",
    "msg_error_postal_wrong_format": "PS\u010c nem\u00e1 platn\u00fd form\u00e1t",
    "msg_error_company_same_name_exists": "Firma se stejn\u00fdm jm\u00e9nem je ji\u017e zaregistrov\u00e1na",
    "msg_error_company_same_email_exists": "Firma se stejn\u00fdm emailem je ji\u017e zaregistrov\u00e1na",
    "msg_error_select_region": "Zvolte pros\u00edm kraj",
    "msg_error_telephone_wrong_format": "Telefonn\u00ed \u010d\u00edslo nem\u00e1 platn\u00fd form\u00e1t",
    "submit_finish_registration": "Dokon\u010dit registraci",
    "msg_error_same_username_exists": "U\u017eivatel se stejn\u00fdm u\u017eivatelsk\u00fdm jm\u00e9nem je ji\u017e zaregistrov\u00e1n",
    "msg_error_user_same_email_exists": "U\u017eivatel se stejn\u00fdm emailem je ji\u017e zaregistrov\u00e1n",
    "msg_error_missing_vat_id": "I\u010c mus\u00ed b\u00fdt vypln\u011bno",
    "msg_error_fulfill_company_details": "Vypl\u0148te pros\u00edm \u00fadaje o firm\u011b",
    "msg_error_username_min_length": "U\u017eivatelsk\u00e9 jm\u00e9no mus\u00ed m\u00edt minim\u00e1ln\u011b %min% znaky",
    "msg_error_username_max_length": "U\u017eivatelsk\u00e9 jm\u00e9no mus\u00ed m\u00edt maxim\u00e1ln\u011b %max% znak\u016f",
    "new_password": "Nov\u00e9 heslo",
    "submit_change_password": "Zm\u011bnit heslo",
    "msg_password_not_min_length": "Heslo mus\u00ed m\u00edt minim\u00e1ln\u011b %min% znak\u016f",
    "msg_sign_in_success": "P\u0159ihl\u00e1\u0161en\u00ed bylo \u00fasp\u011b\u0161n\u011b",
    "msg_sign_out_success": "Byl jste \u00fasp\u011b\u0161n\u011b odhl\u00e1\u0161en",
    "submit_enter": "Vstoupit",
    "submit_password_reset": "Obnovit heslo",
    "link_enter_app_as": "Vstoupit do aplikace jako",
    "link_sign_in": "P\u0159ihlaste se",
    "link_sign_in_as_another_user": "P\u0159ihlaste se jako jin\u00fd u\u017eivatel",
    "txt_sign_in": "p\u0159ihl\u00e1\u0161en\u00ed",
    "link_lost_password": "Zapomenut\u00e9 heslo",
    "txt_email_for_password_renew": "pro obnoven\u00ed hesla zadejte V\u00e1\u0161 email",
    "txt_enter_new_password": "zadejte Va\u0161e nov\u00e9 heslo",
    "submit_save_activate": "Ulo\u017eit a aktivovat",
    "category": "Kategoria",
    "file": "Plik",
    "uploaded_date": "Dane",
    "submit_confirm_upload_files": "Potrdit a nahr\u00e1t soubory",
    "warranty_list_docs": "Dokumenty",
    "tag_active": "Seznam",
    "crm_case_assigned_vehicles": "P\u0159i\u0159azen\u00e1 vozidla",
    "crn_case_search_stock_vehicles": "Vyhledat ze skladu",
    "crm_case_un_assign_all_vehicles": "Odebrat v\u0161e",
    "crm_case_no_vehicles_assigned": "K p\u0159\u00edpadu nejsou p\u0159i\u0159azena \u017e\u00e1dn\u00e1 vozidla",
    "vehicle_profile": "Profil vozu",
    "crm_case_un_assign_vehicle": "Smazat z popt\u00e1vky",
    "confirm_delete_file": "Opravdu chcete smazat soubor {{ filename }}?",
    "h3_contracts": "Smlouvy",
    "upload_contract": "P\u0159idat novou",
    "h3_invoices": "Faktury",
    "upload_invoice": "P\u0159idat novou",
    "h3_other_documents": "Ostatn\u00ed dokumenty",
    "upload_document": "P\u0159idat dokument",
    "submit_save": "Ulo\u017eit",
    "submit_add_comment": "P\u0159idat koment\u00e1\u0159 \/ \u00fakol",
    "crm_events_count": "{NO, plural, 0{\u017e\u00e1dn\u00e1 aktivita} one{aktivita} few{aktivity} other{aktivit}}",
    "flash_customer_created": "Z\u00e1kazn\u00edk vytvo\u0159en",
    "confirm_delete_customer": "Opravdu chcete smazat tohoto z\u00e1kazn\u00edka? Budou smaz\u00e1ny v\u0161echny spojen\u00e9 popt\u00e1vky.",
    "flash_customer_deleted": "Zakazn\u00edk byl smaz\u00e1n",
    "todo_assigned": "P\u0159id\u011bleno",
    "h1_todo_list": "Seznam \u00fakol\u016f",
    "flash_policy_created": "Z\u00e1ruka byla vytvo\u0159ena. Nyn\u00ed vytiskni dokumenty",
    "flash_quote_created": "Nab\u00eddka z\u00e1ruky byla vytvo\u0159ena",
    "flash_sales_guide_completed": "Super duper!",
    "confirm_warranty_not_closed": "Nem\u00e1te uzav\u0159enou z\u00e1ruku. Opravdu chcete prodej dokon\u010dit?",
    "flash_invoice_saved": "Faktura byla ulo\u017eena",
    "confirm_delete_selected_vehicle": "Opravdu chcete smazat vybran\u00e9 vozidlo?",
    "flash_deleted": "\u00dasp\u011b\u0161n\u011b smaz\u00e1no",
    "confirm_delete_contract": "Opravdu chcete smazat \u0161ablonu: {{ contract }}?",
    "confirm_delete_branch": "Opravdu si p\u0159ejete smazat zvolenou pobo\u010dku? Ve\u0161ker\u00e9 informace s n\u00ed spojen\u00e9 budou ztraceny.",
    "flash_branch_created": "Pobo\u010dka vytvo\u0159ena",
    "flash_logo_uploaded": "Logo nahr\u00e1no",
    "flash_user_created": "U\u017eivatel vytvo\u0159en",
    "flash_photo_uploaded": "Fotografie nahr\u00e1na",
    "h1_account_setting": "Nastaven\u00ed \u00fa\u010dtu",
    "confirm_clear_form": "Opravdu si p\u0159ejete vymazat cel\u00fd formul\u00e1\u0159?",
    "submit_save_invoice": "Ulo\u017eit fakturu",
    "flash_unable_vehicles_export": "Vozidla moment\u00e1ln\u011b nen\u00ed mo\u017en\u00e9 exportovat.",
    "flash_vehicles_export_start_1": "Pohodln\u011b se usa\u010fte, export pr\u00e1v\u011b prob\u00edh\u00e1...",
    "flash_vehicles_export_start_2": "U\u017e se to exportuje ;)",
    "flash_vehicles_export_start_3": "B\u011b\u017e si na kafe, vozidla u\u017e vyexportuju za tebe",
    "flash_vehicles_export_start_4": "Hrnu to tam!",
    "flash_vehicles_export_start_5": "Export prob\u00edh\u00e1",
    "msg_reserved": "Rezervov\u00e1no",
    "msg_reserved_till": "Rezervov\u00e1no do {{ date }}",
    "msg_export_errors": "Chyby p\u0159i exportu",
    "flash_new_vehicle": "Par\u00e1da. M\u00e1me na sklad\u011b nov\u00fd v\u016fz!",
    "flash_error_vehicle_required_parts": "U vozidla nejsou vypln\u011bny v\u0161echny povinn\u00e9 polo\u017eky",
    "flash_error_price_vat_deductible": "Nelze m\u00edt cenu bez DPH a z\u00e1rove\u0148 mo\u017enost odpo\u010dtu.",
    "confirm_copy_vehicle_photos": "Zkop\u00edrovat i fotky?",
    "flash_vehicle_copied": "Vozidlo bylo \u00fasp\u011b\u0161n\u011b zkop\u00edrov\u00e1no",
    "confirm_vehicle_to_archive": "Opravdu chcete vybran\u00e9 vozidlo p\u0159esunout do archivu?",
    "flash_vehicle_marked_sold": "Vozidlo bylo ozna\u010deno jako prodan\u00e9",
    "title_draft_vehicles_list": "Rozpracovan\u00e1 vozidla",
    "title_active_vehicles_list": "Seznam vozidel",
    "title_archive_vehicles_list": "Archiv vozidel",
    "title_sold_vehicles_list": "Prodan\u00e1 vozidla",
    "title_vehicles_search": "Hled\u00e1n\u00ed",
    "title_vehicles_search_no_results": "Nepoda\u0159ilo se nic naj\u00edt :(",
    "flash_vehicles_bulk_advertised": "Vybran\u00e1 vozidla byla zainzerov\u00e1na",
    "flash_vehicles_bulk_unadvertised": "Vybran\u00e1 vozidla byla sta\u017eena z inzerce",
    "confirm_vehicles_bulk_delete": "Opravdu chcete smazat vybran\u00e1 vozidla?",
    "flash_vehicles_bulk_delete": "Vybran\u00e1 vozidla byla smaz\u00e1na",
    "confirm_vehicles_bulk_archive": "Opravdu chcete vybran\u00e9 vozidla p\u0159esunout do archivu?",
    "flash_vehicles_bulk_archive": "Vybran\u00e1 vozidla byla archivov\u00e1na",
    "confirm_vehicles_bulk_activate": "Opravdu chcete vybran\u00e9 vozidla p\u0159esunout zp\u011bt do seznamu?",
    "flash_vehicles_bulk_activate": "Vybran\u00e1 vozidla byla p\u0159esunuta zp\u011bt do seznamu",
    "msg_choose_advertising_servers": "Zvolit servery k inzerci",
    "flash_vehicles_bulk_servers": "Vybran\u00e1 vozidla se budou inzerovat na zvolen\u00fdch serverech",
    "confirm_delete_image": "Opravdu chcete smazat obr\u00e1zek {{ name }}?",
    "confirm_delete_selected_images": "Opravdu chcete smazat v\u0161echny vybran\u00e9 obr\u00e1zky?",
    "confirm_delete_tag": "Opravdu si p\u0159ejete smazat \u0161t\u00edtek?",
    "btn_choose_customer": "Zvolit",
    "confirm_delete": "Opravdu smazat?",
    "h1_promo_warranty": "Aktivujte si modul z\u00e1ruky",
    "flash_defend_credentials_saved": "Va\u0161e p\u0159\u00edstupov\u00e9 \u00fadaje do modulu Z\u00e1ruk byly ulo\u017eeny",
    "confirm_delete_policy": "Opravdu si p\u0159ejete smazat zvolenou z\u00e1ruku?",
    "flash_policy_canceled": "Z\u00e1ruka byla stornov\u00e1na",
    "flash_error_no_warranty_coverages": "Nepoda\u0159ilo se vyhledat \u017e\u00e1dn\u00e9 programy",
    "setting_menu_accounting": "\u00da\u010detnictv\u00ed",
    "h3_accounting_setting": "Nastaven\u00ed \u00fa\u010detn\u00edho modulu",
    "series_R3": "{R3} - rok + \u010d\u00edslo - 2014001",
    "series_RM3": "{RM3} - rok + m\u011bs\u00edc + \u010d\u00edslo - 201411001",
    "series_R5": "{R5} - rok + dlouh\u00e9 \u010d\u00edslo - 201400001",
    "series_RM5": "{RM5} - rok + m\u011bs\u00edc + dlouh\u00e9 \u010d\u00edslo - 20141100001",
    "label_prepared_series": "P\u0159ipraven\u00e9 \u0159ady",
    "label_series_name": "N\u00e1zev",
    "label_series_template": "\u0160ablona",
    "flash_billing_series_activated": "\u0158ada nastavena jako aktivn\u00ed",
    "h3_billing_series_list": "Faktura\u010dn\u00ed \u0159ady",
    "h3_new_billing_series": "Nov\u00e1",
    "followed_case_change": "Zm\u011bna ve sledovan\u00e9m p\u0159\u00edpadu",
    "header_quick_menu": "Vytvo\u0159it",
    "invoice_item_total_price": "Cena celkem",
    "invoice_no_exists": "Faktura se stejn\u00fdm \u010d\u00edslem ji\u017e existuje!",
    "label_series_start_from": "Po\u010d\u00e1te\u010dn\u00ed \u010d\u00edslo",
    "flash_err_todo_nothing_to_check": "Nem\u00e1te opr\u00e1vn\u011bn\u00ed ozna\u010dit tento \u00fakol jako spln\u011bn\u00fd.",
    "flash_err_todo_attached_event": "\u00dakol je p\u0159i\u0159azen k ud\u00e1losti, proto jej nem\u016f\u017eete upravovat.",
    "confirm_delete_vehicle_draft": "Opravdu si p\u0159ejete smazat toto rozpracovan\u00e9 vozidlo? Ve\u0161ker\u00e1 data budou ztraceny.",
    "h3_your_contracts": "Va\u0161e smlouvy",
    "flash_cannot_go_to_sales_guide": "Nelze p\u0159ej\u00edt k prodeji, proto\u017ee k p\u0159\u00edpadu nen\u00ed p\u0159i\u0159azen\u00e9 \u017e\u00e1dn\u00e9 vozidlo.",
    "admin": "Administr\u00e1tor",
    "seller": "Prodejce",
    "user": "U\u017eivatel",
    "clerk": "Administrativa",
    "service": "Servis",
    "vehicle_menu_flyer": "Let\u00e1k",
    "setting_menu_api": "Nastaven\u00ed API",
    "h3_api_setting": "Nastaven\u00ed API",
    "api_key": "API kl\u00ed\u010d",
    "btn_regenerate_key": "Resetovat kl\u00ed\u010d",
    "flash_key_regenerated": "API kl\u00ed\u010d byl vygenerov\u00e1n",
    "flash_api_activated": "API aktivov\u00e1no",
    "flash_api_deactivated": "API deaktivov\u00e1no",
    "confirm_regenerate_api_key": "Opravdu si p\u0159ejete resetovat API kl\u00ed\u010d? Ve v\u0161ech propojen\u00fdch aplikac\u00edch bude pot\u00e9 nutn\u00e9 nastavit kl\u00ed\u010d nov\u00fd.",
    "confirm_delete_source": "Opravu si p\u0159ejete smazat vybran\u00fd zdroj?",
    "submit_delete": "Smazat",
    "placeholder_new_source": "Osobn\u00ed n\u00e1v\u0161t\u011bva",
    "label_source_name": "N\u00e1zev zdroje",
    "link_add_source": "P\u0159idat zdroj",
    "link_cancel_selection": "Zru\u0161it v\u00fdb\u011br",
    "link_add_tag": "P\u0159idat \u0161t\u00edtek",
    "label_tag_name": "N\u00e1zev \u0161t\u00edtku",
    "color": "Barva",
    "placeholder_new_tag": "D\u016fle\u017eit\u00e9",
    "tooltip_vat_no_lookup": "Zjistit \u00fadaje z\u00e1kazn\u00edka z datab\u00e1ze ARES",
    "flash_email_key_regenerated": "API email resetov\u00e1n",
    "btn_regenerate_email_key": "Resetovat API email",
    "api_email_key": "API email",
    "confirm_regenerate_api_email_key": "Opravdu chcete resetovat API email? Ve v\u0161ech aplikac\u00edch, kter\u00e9 jej vyu\u017e\u00edvaj\u00ed jej bude nutn\u00e9 nastavit znovu.",
    "vehicle_price_purchase": "Cena n\u00e1kup",
    "vehicle_price_b2b": "Cena B2B",
    "flash_user_activated": "U\u017eivatel byl aktivov\u00e1n",
    "flash_user_deactivated": "U\u017eivatel byl deaktivov\u00e1n",
    "btn_user_activate": "Aktivovat",
    "btn_user_deactivate": "Deaktivovat",
    "vehicle_price_sale": "Cena prodej",
    "vehicle_not_advertised": "Nen\u00ed inzerov\u00e1no",
    "vehicle_menu_card": "Karta",
    "vehicle_menu_gallery": "Galerie",
    "vehicle_menu_advertising": "Inzerce",
    "vehicle_menu_service": "Servis",
    "vehicle_menu_balance": "Bilance",
    "btn_reserve_sell_vehicle": "Rezervovat\/Prodat vozidlo",
    "service_contract_name": "Zak\u00e1zka",
    "service_contract_price": "Cena",
    "service_contract_created": "Vytvo\u0159eno",
    "service_contract_due_date": "Term\u00edn zhotoven\u00ed",
    "service_contract_approved": "Schv\u00e1leno",
    "service_contract_done": "Hotovo",
    "service_contract_paid_by": "Hrazeno",
    "label_service_entered_by": "Zadal\/a",
    "label_current_km": "Aktu\u00e1ln\u00ed stav km",
    "label_created": "Datum vytvo\u0159en\u00ed",
    "label_due_date": "Datum zhotoven\u00ed",
    "label_assigned": "P\u0159i\u0159azeno",
    "label_approved": "Schv\u00e1leno",
    "label_service_name": "N\u00e1zev zak\u00e1zky",
    "label_paid_by": "Hrazeno",
    "label_desc_note": "Popis\/pozn\u00e1mky",
    "btn_add_service_contract": "Vytvo\u0159it novou zak\u00e1zku",
    "flash_service_approved": "Zak\u00e1zka schv\u00e1lena",
    "flash_service_not_approved": "Zak\u00e1zka nen\u00ed schv\u00e1lena",
    "confirm_not_approve_service": "Opravdu si p\u0159ejete zak\u00e1zku nastavit jako neschv\u00e1lenou?",
    "confirm_approve_service": "Opravdu si p\u0159ejete schv\u00e1lit zak\u00e1zku?",
    "flash_service_done": "A je hotovo!",
    "flash_service_not_done": "Zak\u00e1zka je ozna\u010dena jako nedokon\u010den\u00e1",
    "flash_service_saved": "Zak\u00e1zka ulo\u017eena",
    "flash_error_service_not_approved": "Nelze uzav\u0159\u00edt zak\u00e1zku p\u0159edt\u00edm ne\u017e je schv\u00e1lena",
    "confirm_redirect_vehicle_advertising": "Nem\u00e1te zvoleny \u017e\u00e1dn\u00e9 servery k inzerci. Vozidlo tud\u00ed\u017e nelze nikde inzerovat. Chcete zvolit servery?",
    "confirm_delete_event": "Opravdu chcete smazat tuhle ud\u00e1lost?",
    "flash_event_deleted": "Ud\u00e1lost smaz\u00e1na",
    "h3_vehicle_missing_params": "Ooops. N\u011bkter\u00e9 povinn\u00e9 \u00fadaje k inzerci chyb\u00ed.",
    "h3_vehicle_missing_params_fulfill": "Dopl\u0148te je pros\u00edm na p\u0159\u00edslu\u0161n\u00fdch z\u00e1lo\u017ek\u00e1ch.",
    "missing_kinds_id": "Druh vozidla",
    "missing_brands_id": "Zna\u010dka",
    "missing_models_id": "Model",
    "missing_specification": "Specifikace",
    "missing_conditions_id": "Stav",
    "missing_price": "Cena prodej",
    "missing_vin": "VIN",
    "missing_bodies_id": "Karoserie",
    "missing_kw": "V\u00fdkon",
    "missing_ccm": "Objem",
    "missing_km": "Najeto",
    "missing_date_made_month": "M\u011bs\u00edc v\u00fdroby",
    "missing_date_made_year": "Rok v\u00fdroby",
    "missing_states_id": "Zem\u011b p\u016fvodu",
    "missing_fuels_id": "Palivo",
    "missing_colors_id": "Barva",
    "txt_missing_vehicle_photos": "Nem\u00e1te nahr\u00e1ny \u017e\u00e1dn\u00e9 obr\u00e1zky.",
    "txt_vehicle_this_missing": "Chyb\u011bj\u00ed tyto polo\u017eky:",
    "heading_sellers_sales": "Hodnocen\u00ed prodejc\u016f - obchod",
    "heading_sellers_crm": "Hodnocen\u00ed prodejc\u016f - CRM",
    "heading_sources": "CRM - marketing",
    "heading_sales": "Obchod",
    "heading_vehicles": "Vozidla",
    "vehicles_on_stock": "po\u010det voz\u016f skladem",
    "newly_created_vehicles": "nov\u011b p\u0159idan\u00e1 vozidla",
    "last_week": "Min. t\u00fdden",
    "percent_change": "Zm\u011bna",
    "margin_achieved": "dosa\u017een\u00e1 mar\u017ee",
    "share_in_percent": "pod\u00edl v %",
    "sold_vehicles_count": "prodan\u00e9 vozy (ks)",
    "average_margin_per_car": "pr\u016fm\u011brn\u00e1 mar\u017ee na auto (K\u010d)",
    "success_rate": "\u00fasp\u011b\u0161nost",
    "success_fail_closed": "\u00fasp\u011b\u0161n\u011b \/ ne\u00fasp\u011b\u0161n\u011b uzav\u0159eno",
    "open_total_30_days": "otev\u0159eno celkem \/ otev\u0159eno d\u00e9le ne\u017e 30 dn\u00ed",
    "average_case_execution_time": "pr\u016fm\u011brn\u00e1 doba vy\u0159\u00edzen\u00ed p\u0159\u00edpadu",
    "demands_count": "po\u010det popt\u00e1vek",
    "turnover": "obrat (K\u010d)",
    "margin_without_recorded_costs": "mar\u017ee o\u010di\u0161t\u011bn\u00e1 o evidovan\u00e9 n\u00e1klady (K\u010d)",
    "average_margin_percent": "pr\u016fm\u011brn\u00e1 mar\u017ee (%)",
    "average_time_on_stock": "pr\u016fm\u011brn\u00e1 doba skladem",
    "on_stock_till_30days": "po\u010det voz\u016f skladem do 30 dn\u00ed",
    "on_stock_over_30days": "po\u010det voz\u016f skladem nad 30 dn\u00ed",
    "on_stock_over_90days": "po\u010det voz\u016f skladen nad 90 dn\u00ed",
    "on_stock_over_180days": "po\u010det voz\u016f skladen nad 180 dn\u00ed",
    "menu_crm_statistics": "Statistiky",
    "h1_crm_statistics": "Statistiky",
    "sw_key": "SW kl\u00ed\u010d",
    "invoice_item_vat_included": "v\u010d. DPH?",
    "invoice_item_price_without_vat": "cena bez DPH",
    "error_vehicle_image_small": "Nahr\u00e1vejte obr\u00e1zky o minim\u00e1ln\u00edm rozli\u0161en\u00ed 1024x768px",
    "vehicle_print_card": "Vytisknout kartu",
    "balance_item": "Polo\u017eka",
    "balance_price": "\u010c\u00e1stka",
    "balance_diff_sale_purchase": "Rozd\u00edl n\u00e1kup\/prodej",
    "balance_service_costs": "Servisn\u00ed n\u00e1klady",
    "balance_add_item": "P\u0159idat polo\u017eku",
    "balance_result": "V\u00fdsledek",
    "menu_crm_demands_list": "Seznam popt\u00e1vek",
    "menu_crm_demands_add": "Vytvo\u0159it popt\u00e1vku",
    "error_invalid_credentials": "Nepoda\u0159ilo se p\u0159ihl\u00e1sit, proto\u017ee p\u0159ihla\u0161ovac\u00ed \u00fadaje nejsou spr\u00e1vn\u00e9.",
    "h1_demands": "Popt\u00e1vky",
    "demand_id": "\u010c\u00edslo popt\u00e1vky",
    "crm_btn_demand_create_case": "Vytvo\u0159it nov\u00fd obchodn\u00ed p\u0159\u00edpad",
    "crm_btn_close_demand": "Uzav\u0159\u00edt popt\u00e1vku",
    "crm_menu_activity": "Ud\u00e1losti",
    "crm_menu_demand": "Detaily popt\u00e1vky",
    "crm_menu_customer": "Detaily z\u00e1kazn\u00edka",
    "crm_menu_documents": "\u00dalo\u017ei\u0161t\u011b dokument\u016f",
    "crm_menu_invoices": "Faktury",
    "crm_menu_policies": "Z\u00e1ruky",
    "crm_menu_contracts": "\u0160ablony smluv",
    "h1_cases": "Obchodn\u00ed p\u0159\u00edpady",
    "h2_add_new_demand": "Vytvo\u0159it novou popt\u00e1vku",
    "crm_demand_name": "N\u00e1zev popt\u00e1vky",
    "h3_insurance": "Poji\u0161t\u011bn\u00ed",
    "company": "Firma",
    "warranty_list_overview": "P\u0159ehled",
    "warranty_list_details": "Detaily",
    "btn_show_coverages": "Zobrazit mo\u017en\u00e9 programy",
    "warranty_status_created_on": "Vytvo\u0159eno",
    "warranty_status_opened_on": "Potvrzeno",
    "tag_archived": "Archiv",
    "tag_sold": "Prodan\u00e1",
    "LumpSum": "Jednor\u00e1zov\u00e9 pojistn\u00e9",
    "Annual": "Ro\u010dn\u00ed",
    "Mis-Fuelling": "Chybn\u00e9 tankov\u00e1n\u00ed",
    "MultiMedia and Sat\/Nav": "Multimedi\u00e1ln\u00ed a satelitn\u00ed navigace",
    "Rental Car Reimbursement": "N\u00e1hrada p\u016fj\u010dovn\u00e9ho",
    "Trip Interruption": "P\u0159eru\u0161en\u00ed cesty",
    "Unlimited": "Bez omezen\u00ed",
    "Purchase_price": "Po\u0159izovac\u00ed cena vozidla",
    "BANK_TRANSFER": "Bankovn\u00edm p\u0159evodem",
    "PAID_BY_DEALER": "Hrazeno prodejcem",
    "PAID_TO_DEALER": "Zaplaceno prodejci",
    "INDIVIDUAL": "Fyzick\u00e1 osoba",
    "SOLE_PROPRIETOR": "Osoba samostatn\u011b v\u00fdd\u011ble\u010dn\u011b \u010dinn\u00e1",
    "BUSINESS": "Pr\u00e1vnick\u00e1 osoba",
    "TERM": "Doba poji\u0161t\u011bn\u00ed",
    "KM_LIMIT": "Limit km",
    "CLAIM_LIMIT": "Limit pojistn\u00e9ho pln\u011bn\u00ed",
    "DEDUCTIBLE": "V\u00fd\u0161e spolu\u00fa\u010dasti",
    "Mr": "Pan",
    "Mrs": "Pan\u00ed",
    "individual": "Fyzick\u00e1 osoba",
    "sole_proprietor": "OSV\u010c",
    "business": "Pr\u00e1vnick\u00e1 osoba",
    "vehicle_sold": "Prod\u00e1no!",
    "vehicle_created": "Vozidlo vytvo\u0159eno",
    "vehicle_updated_price": "Cena upravena",
    "vehicle_updated_equips": "V\u00fdbava upravena",
    "vehicle_updated_info": "Informace upraveny",
    "vehicle_updated_photo": "Fotky upraveny",
    "vehicle_advertised": "Zainzerov\u00e1no",
    "vehicle_unadvertised": "Sta\u017eeno z inzerce",
    "vehicle_deleted": "Vozidlo smaz\u00e1no",
    "vehicle_archived": "Vozidlo archivov\u00e1no",
    "crm_case_assigned": "P\u0159\u00edpad p\u0159id\u011blen",
    "crm_case_deleted": "P\u0159\u00edpad smaz\u00e1n",
    "crm_case_archived": "P\u0159\u00edpad archivov\u00e1n",
    "crm_add_attachment": "P\u0159\u00edloha p\u0159id\u00e1na",
    "warranty_created": "Uzav\u0159ena z\u00e1ruka!",
    "crm_event_new": "Nov\u00e1 aktivita",
    "action_case_status_success": "P\u0159\u00edpad \u00fasp\u011b\u0161n\u011b uzav\u0159en",
    "action_case_status_open": "P\u0159\u00edpad otev\u0159en",
    "action_case_status_fail": "P\u0159\u00edpad ne\u00fasp\u011b\u0161n\u011b uzav\u0159en",
    "vehicles_export_finish": "Export dokon\u010den",
    "vehicles_export_error": "Chyba p\u0159i exportu",
    "warranty_status_certified_on": "Vystaveno",
    "warranty_status_canceled_on": "Stornov\u00e1no",
    "menu_list": "Seznam",
    "menu_dashboard": "Pracovn\u00ed plocha",
    "menu_vehicles": "Vozidla",
    "menu_vehicles_archive": "Archiv",
    "menu_vehicles_sold": "Prodan\u00e1",
    "menu_crm": "CRM",
    "menu_crm_add_case": "Zalo\u017eit p\u0159\u00edpad",
    "menu_crm_customers": "Seznam z\u00e1kazn\u00edku",
    "menu_warranties": "Z\u00e1ruky",
    "menu_warranties_add": "Zalo\u017eit z\u00e1ruku",
    "menu_vehicles_draft": "Rozpracovan\u00e1",
    "menu_invoices": "Fakturace",
    "menu_invoices_add": "Vytvo\u0159it fakturu",
    "menu_vehicles_add": "P\u0159idat vozidlo",
    "menu_crm_list": "P\u0159ehled p\u0159\u00edpad\u016f",
    "menu_vehicles_list": "Seznam vozidel",
    "menu_invoices_list": "P\u0159ehled faktur",
    "menu_warranties_list": "Seznam z\u00e1ruk",
    "crm_case_status_fail": "P\u0159\u00edpad ne\u00fasp\u011b\u0161n\u011b uzav\u0159en",
    "crm_case_status_success": "P\u0159\u00edpad \u00fasp\u011b\u0161n\u011b dokon\u010den",
    "crm_case_status_open": "P\u0159\u00edpad znovu otev\u0159en",
    "crm_case_created": "Nov\u00fd p\u0159\u00edpad",
    "todo_new": "Nov\u00fd \u00fakol",
    "followed_case_event": "Nov\u00e1 aktivita",
    "menu_crm_todos": "Seznam \u00fakol\u016f",
    "warranty_quote_created": "Vytvo\u0159ena nab\u00eddka z\u00e1ruky",
    "warranty_policy_created": "Uzav\u0159ena z\u00e1ruka!",
    "placeholder_search_vehicles": "VYHLEDAT VOZY",
    "menu_setting": "Nastaven\u00ed",
    "menu_account_setting": "Nastaven\u00ed \u00fa\u010dtu",
    "menu_logout": "Odhl\u00e1sit se",
    "h2_vehicles_draft": "Rozpracovan\u00e1 vozidla",
    "edit": "Editovat",
    "delete": "Smazat",
    "p_vehicles_draft_empty": "Nem\u00e1\u0161 \u017e\u00e1dn\u00e1 rozpracovan\u00e1 vozidla",
    "h2_live_feed": "Pr\u00e1v\u011b se d\u011bje",
    "h2_todos": "\u00dakoly",
    "p_empty_todos": "Nem\u00e1\u0161 \u017e\u00e1dn\u00e9 \u00fakoly",
    "todo_term": "Term\u00edn",
    "todo_created_date": "Zad\u00e1no",
    "todo_fulfilled": "Spln\u011bno",
    "tooltip_show_case": "Zobrazit p\u0159\u00edpad",
    "placeholder_wntbd": "Co je pot\u0159eba ud\u011blat?",
    "h1_crm": "CRM",
    "h1_activate_crm": "Aktivujte si modul CRM",
    "h1_add_customer": "Vytvo\u0159en\u00ed z\u00e1kazn\u00edka",
    "h1_list_customers": "Seznam z\u00e1kazn\u00edk\u016f",
    "submit_create": "Vytvo\u0159it",
    "delete_customer": "Smazat z\u00e1kazn\u00edka",
    "submit_save_changes": "Ulo\u017eit zm\u011bny",
    "h3_related_cases": "Souvisej\u00edc\u00ed p\u0159\u00edpady",
    "add_customer": "P\u0159idat z\u00e1kazn\u00edka",
    "label_search": "Vyhledat",
    "customer": "Z\u00e1kazn\u00edk",
    "name": "Jm\u00e9no",
    "telephone": "Telefon",
    "email": "Email",
    "city": "M\u011bsto",
    "h2_add_new_case": "Zalo\u017eit nov\u00fd p\u0159\u00edpad",
    "case_id": "\u010c\u00edslo p\u0159\u00edpadu",
    "case_menu_activity": "Aktivita",
    "case_menu_demand": "Popt\u00e1vka",
    "case_menu_customer": "Z\u00e1kazn\u00edk",
    "case_menu_documents": "Dokumenty",
    "btn_sync_vehicles": "Synchronizovat inzerci",
    "vehicle_vin": "VIN",
    "vehicle_kind": "Druh vozidla",
    "vehicle_brand": "Zna\u010dka",
    "vehicle_model": "Model",
    "vehicle_specification": "Specifikace",
    "vehicle_description": "Popis",
    "h3_vehicle_type": "Typ vozidla",
    "h3_vehicle_price": "Cena vozu",
    "vehicle_price": "Cena",
    "vehicle_price_note": "Pozn\u00e1mka k cen\u011b",
    "vehicle_vat": "V\u010detn\u011b DPH",
    "vehicle_vat_deductible": "Odpo\u010det DPH",
    "h3_vehicle_condition": "Stav vozidla",
    "vehicle_condition": "Stav",
    "vehicle_state": "Zem\u011b p\u016fvodu",
    "vehicle_service_book": "Servisn\u00ed kn\u00ed\u017eka",
    "vehicle_first_owner": "Prvn\u00ed majitel",
    "vehicle_crashed": "Havarov\u00e1no",
    "vehicle_handicapted": "Podpora handicapovan\u00fdch",
    "vehicle_tuning": "Tuning",
    "vehicle_date_made": "Vyrobeno",
    "vehicle_registered_date": "V provozu od",
    "vehicle_warranty_date": "Z\u00e1ruka do",
    "vehicle_stk_date": "STK do",
    "h3_vehicle_body": "Karoserie",
    "vehicle_body": "Karoserie",
    "vehicle_doors": "Po\u010det dve\u0159\u00ed",
    "vehicle_seats": "Po\u010det m\u00edst",
    "vehicle_aircondition": "Klimatizace",
    "vehicle_airbags": "Po\u010det airbag\u016f",
    "h3_vehicle_color": "Barva",
    "vehicle_color": "Barva",
    "vehicle_color_type": "Typ barvy",
    "vehicle_color_tone": "T\u00f3n barvy",
    "h3_vehicle_engine": "Motor",
    "vehicle_fuel": "Palivo",
    "vehicle_gearbox": "P\u0159evodovka",
    "vehicle_gearbox_auto_type": "Typ",
    "vehicle_gears_count": "Po\u010det p\u0159evod\u016f",
    "vehicle_ccm": "Objem",
    "vehicle_kw": "V\u00fdkon",
    "vehicle_consumption": "Spot\u0159eba",
    "tooltip_vehicle_consumption": "Spot\u0159eba je povinn\u00e1 polo\u017eka p\u0159i inzerci nov\u00e9ho vozidla na mobile.de",
    "vehicle_euro": "Emisn\u00ed norma",
    "tooltip_vehicle_euro": "Emisn\u00ed norma je povinn\u00e1 polo\u017eka p\u0159i inzerci nov\u00e9ho vozidla na mobile.de",
    "vehicle_km": "Najeto",
    "h3_vehicle_photos": "Fotky",
    "h3_vehicle_advertise": "Inzerce",
    "checkbox_select_vehicle_advertising_servers": "Ozna\u010dit\/odzna\u010dit v\u0161e",
    "checkbox_vehicle_teas_xml": "Inzerovat tak\u00e9 na v\u0161ech serverech, kter\u00e9 si stahuj\u00ed inzerci samy.",
    "tooltip_generate_vin": "Vygenerovat VIN",
    "h3_vehicle_basic_info": "Z\u00e1kladn\u00ed info",
    "yes": "ano",
    "no": "ne",
    "undefined": "Neuvedeno",
    "h3_vehicle_tech_info": "Technick\u00e9 informace",
    "h3_vehicle_equips": "V\u00fdbava",
    "vehicle_edit_gallery": "Upravit galerii",
    "tooltip_vehicle_photo_limit": "Fotky do velikosti 2MB",
    "tooltip_sort_alpa_asc": "Se\u0159adit abecedn\u011b vzestupn\u011b",
    "tooltip_sort_alpa_desc": "Se\u0159adit abecedn\u011b sestupn\u011b",
    "tooltip_select_all": "Vybrat v\u0161e",
    "tooltip_unselect_all": "Odebrat v\u0161e",
    "tooltip_delete_selected_photos": "Smazat ozna\u010den\u00e9 fotky",
    "all": "V\u0161e",
    "nothing": "Nic",
    "new": "Nov\u00e9",
    "used_vehicle": "Ojet\u00e9",
    "year": "Rok",
    "vehicle_sort_name": "N\u00e1zev",
    "vehicle_sort_advertised": "K inzerci",
    "vehicle_sort_created": "Skladem",
    "vehicle_sort_date_made_year": "Rok",
    "vehicle_menu_select_servers": "Zvolit inzertn\u00ed servery",
    "vehicle_menu_archive": "Archivovat",
    "vehicle_wizard_step_2": "Karoserie a motor",
    "vehicle_wizard_step_3": "V\u00fdbava",
    "vehicle_wizard_step_4": "Fotogalerie",
    "vehicle_wizard_step_5": "Inzerce",
    "vehicle_wizard_next": "Dal\u0161\u00ed krok",
    "vehicle_wizard_back": "Zp\u011bt",
    "vehicle_wizard_finish": "Dokon\u010dit",
    "checkbox_select_unselect_all": "Ozna\u010dit\/odzna\u010dit v\u0161e",
    "h1_create_vehicle": " P\u0159idat nov\u00e9",
    "vehicle_menu_print_card": "Vytisknout kartu",
    "vehicle_menu_other_options": "Dal\u0161\u00ed mo\u017enosti",
    "vehicle_menu_price_history": "V\u00fdvoj ceny",
    "vehicle_menu_sell": "Prodat",
    "vehicle_date_made_year ": "Rok v\u00fdroby",
    "vehicle_for_advertisement ": "K inzerci",
    "vehicle_menu_create_copy": "Vytvo\u0159it kopii",
    "vehicle_menu_reserve": "Rezervovat",
    "vehicle_menu_check_vin": "Prov\u011b\u0159it VIN",
    "vehicle_handicaped": "Podpora handicapovan\u00fdch",
    "h2_vehicle_advertising_servers": "V\u00fdb\u011br inzertn\u00edch server\u016f",
    "vehicle_menu_a4_l": "A4 na \u0161\u00ed\u0159ku",
    "vehicle_menu_a4_p": "A4 na v\u00fd\u0161ku",
    "vehicle_menu_a3_l": "A3 na \u0161\u00ed\u0159ku",
    "vehicle_menu_a3_p": "A3 na v\u00fd\u0161ku",
    "note": "Pozn\u00e1mka",
    "vehicle_cancel_reservation": "Zru\u0161it rezervaci",
    "vehicle_reserve_till": "Do kdy",
    "vehicle_menu_make_active": "P\u0159esunout do seznamu",
    "h3_extras": "Dopl\u0148kov\u00e9 slu\u017eby",
    "claim_limit_b": "limit poj. pln\u011bn\u00ed",
    "claim_limit_a": "Celkov\u00fd limit na 1 PU",
    "deductible_limit": "V\u00fd\u0161e spolu\u00fa\u010dasti",
    "h3_deductible\/claim": "Spolu\u00fa\u010dast\/Pln\u011bn\u00ed",
    "km_limit": "Limit km",
    "h3_insurance_terms": "Pojistn\u00e9 podm\u00ednky",
    "flash_crm_case_created": "P\u0159\u00edpad vytvo\u0159en",
    "print_quote": "Tisk n\u00e1vrhu",
    "policy_options": "Mo\u017enosti",
    "policy_paid": "Uhrazeno",
    "residency": "S\u00eddlo",
    "contact": "Kontakt",
    "h3_acquisition": "Po\u0159\u00edzen\u00ed",
    "ins_term": "Doba poji\u0161t\u011bn\u00ed",
    "vehicle_reg_no": "SPZ",
    "vat_reclaimable": "DPH je mo\u017en\u00e9 ode\u010d\u00edst",
    "policy_expiry_date": "Konec poji\u0161t\u011bn\u00ed",
    "policy_inception_date": "Po\u010d\u00e1tek poji\u0161t\u011bn\u00ed",
    "vehicle_prev_owners_no": "Po\u010det p\u0159edchoz\u00edch majitel\u016f",
    "notes": "Pozn\u00e1mky",
    "policy_premium": "Pojistn\u00e9",
    "policy_created": "Vytvo\u0159eno",
    "h3_insured_policyholder": "Poji\u0161t\u011bn\u00fd \/ Pojistn\u00edk",
    "policyholder": "Pojistn\u00edk",
    "customer_title": "Osloven\u00ed z\u00e1kazn\u00edka",
    "id_no\/vat_no": "R\u010c\/I\u010cO",
    "customer_had_claims": "P\u0159edchoz\u00ed GAP pojistn\u00e9 ud\u00e1losti",
    "insured": "Poji\u0161t\u011bn\u00fd",
    "h3_policy_loadings": "P\u0159ir\u00e1\u017eky",
    "h3_policy_extras": "Dopl\u0148kov\u00e9 kryt\u00ed",
    "sellers": "Prodejci",
    "h3_base_branch_details": "Z\u00e1kladn\u00ed \u00fadaje pobo\u010dky",
    "vat_id": "DI\u010c",
    "name_title": "N\u00e1zev",
    "country_region": "Kraj",
    "logo": "Logo",
    "create_new_branch": "Vytvo\u0159it novou pobo\u010dku",
    "h3_base_company_details": "Z\u00e1kladn\u00ed \u00fadaje firmy",
    "h3_more_info": "Dal\u0161\u00ed \u00fadaje",
    "owner": "Majitel",
    "web": "Web",
    "contract_name": "N\u00e1zev smlouvy",
    "create_new_contract_template": "Vytvo\u0159it novou",
    "save_contract_template": "Ulo\u017eit \u0161ablonu",
    "h3_idefend_credentials": "iDefend p\u0159ihla\u0161ovac\u00ed \u00fadaje",
    "username": "U\u017eivatelsk\u00e9 jm\u00e9no",
    "password": "Heslo",
    "login": "Login",
    "key": "Kl\u00ed\u010d",
    "customer_no": "\u010c\u00edslo z\u00e1kazn\u00edka",
    "create_new_user": "Vytvo\u0159it nov\u00e9ho u\u017eivatele",
    "assigned_roles": "Ur\u010den\u00e9 role",
    "assigned_branches": "P\u0159i\u0159azen\u00e9 pobo\u010dky",
    "password_check": "Heslo pro kontrolu",
    "msg_password_diff": "Hesla se neshoduj\u00ed",
    "msg_password_same": "Hesla jsou stejn\u00e9",
    "photo": "Fotka",
    "h1_setting": "Nastaven\u00ed",
    "setting_menu_servers": "Servery",
    "setting_menu_contracts_templates": "\u0160ablony smluv a dokument\u016f",
    "setting_menu_idefend": "iDefend",
    "setting_menu_company": "Firma",
    "setting_menu_branches": "Pobo\u010dky",
    "setting_menu_users": "U\u017eivatel\u00e9",
    "h3_advanced_info": "Roz\u0161\u00ed\u0159en\u00e9 info",
    "h1_invoice_list": "Seznam faktur",
    "invoice_paid_date": "Datum \u00fahrady",
    "no_short": "\u010d.",
    "invoice_payment_type": "Zp\u016fsob platby",
    "invoice_created_date": "Datum vystaven\u00ed",
    "invoice_due_date": "Datum splatnosti",
    "invoice_variable_symbol": "Variabiln\u00ed symbol",
    "invoice_constant_symbol": "Konstantn\u00ed symbol",
    "invoice_item": "Polo\u017eka",
    "invoice_item_unit_price": "Cena\/jedn.",
    "invoice_item_quantity": "Po\u010det",
    "invoice_item_vat_rate": "Sazba DPH",
    "invoice_item_vat": "DPH",
    "invoice_item_price": "Cena",
    "invoice_add_item": "P\u0159idat polo\u017eku",
    "invoice_price_without_vat": "Celkem bez DPH",
    "invoice_vat": "DPH",
    "invoice_total_price": "Celkem k \u00fahrad\u011b",
    "print_invoice": "Vytisknout fakturu",
    "clear_form": "Vymazat formul\u00e1\u0159",
    "storno": "Stornovat",
    "invoice_mark_as_paid": "Ozna\u010dit jako zaplacenou",
    "tags": "\u0160t\u00edtky",
    "source": "Zdroj",
    "followers": "Sleduj\u00edc\u00ed",
    "surname": "P\u0159\u00edjmen\u00ed",
    "id_no": "Rodn\u00e9 \u010d\u00edslo",
    "vat_no": "I\u010c",
    "bank_account_no": "\u010c\u00edslo bankovn\u00edho \u00fa\u010dtu",
    "address": "Adresa",
    "street": "Ulice, \u010d.p.",
    "postal": "PS\u010c",
    "country": "St\u00e1t",
    "placeholder_ex_skoda": "nap\u0159. \u0160koda",
    "crm_case_name": "N\u00e1zev p\u0159\u00edpadu",
    "text": "Text",
    "crm_case_added_by": "P\u0159idal",
    "crm_case_created_by": "Vytvo\u0159il",
    "keywords": "Kl\u00ed\u010dov\u00e1 slova",
    "placeholder_crm_keywords": "benz\u00edn hatchback \u010derven\u00e1",
    "last": "posledn\u00ed",
    "vehicle": "Vozidlo",
    "warranty": "Z\u00e1ruka",
    "contracts_documents": "Smlouvy a dokumenty",
    "billing": "Fakturace",
    "sale_complete": "Dokon\u010den\u00ed prodeje",
    "btn_complete_sale": "Dokon\u010dit prodej",
    "btn_download_documents": "St\u00e1hnout dokumenty",
    "txt_sale_complete": "Prodejn\u00ed proces je u konce. Klikn\u011bte na tla\u010d\u00edtko dokon\u010dit. V\u016fz se pot\u00e9 automaticky st\u00e1hne z inzertn\u00edch server\u016f a p\u0159esune do sekce prodan\u00fdch voz\u016f.",
    "txt_sales_guide_desc": "Postupujte dle krok\u016f a\u017e ke kompletn\u00edmu vy\u0159e\u0161en\u00ed Va\u0161\u00ed zak\u00e1zky.",
    "h_sales_guide": "Pr\u016fvodce prodejem",
    "invoice_sort_date": "Vystaveno",
    "invoice_state": "Stav",
    "invoice_options": "Mo\u017enosti",
    "h1_create_invoice": "Vytvo\u0159en\u00ed faktury",
    "invoice_add": "P\u0159idat fakturu",
    "invoice_no": "\u010c\u00edslo faktury",
    "month": "M\u011bs\u00edc",
    "week": "T\u00fdden",
    "without_vat": "bez DPH",
    "with_vat": "v\u010detn\u011b DPH",
    "vat_included?": "Zadan\u00e1 cena je",
    "vehicle_purchase_price": "Po\u0159izovac\u00ed cena vozidla",
    "vehicle_purchase_date": "Datum koup\u011b vozidla",
    "vehicle_odometer": "Tachometr",
    "vehicle_reg_date": "Datum prvn\u00ed registrace vozidla",
    "vehicle_mfg_warr_km": "Z\u00e1ruka v\u00fdrobce",
    "vehicle_mfg_warr_term": "D\u00e9lka z\u00e1ruky v\u00fdrobce (m\u011bs)",
    "engine_size": "Objem motoru",
    "vehicle_model_derivative": "Typ vozidla",
    "vehicle_model_name": "Model vozidla",
    "payment_method": "Zp\u016fsob platby",
    "payment_term": "Frekvence plateb",
    "contract_no": "\u010c\u00edslo smlouvy",
    "h3_contract": "Smlouva",
    "print_contract": "Tisk smlouvy",
    "dealer": "Dealer",
    "vehicle_wizard_step_1": "Typ, cena, stav",
    "vehicle_date_made_year": "Rok v\u00fdroby",
    "h2_vehicle_price_history": "V\u00fdvoj ceny",
    "vehicle_for_advertisement": "K inzerci",
    "h1_dashboard": "Pracovn\u00ed plocha",
    "refund_paid_to": "N\u00e1hradu zaplat\u00ed",
    "cancellation_refund": "N\u00e1hrada",
    "cancellation_reason": "D\u016fvod",
    "submit_confirm": "Potvrdit",
    "submit_save_proposal": "Ulo\u017eit nab\u00eddku",
    "vehicle_mfg_inception": "Datum po\u010d\u00e1tku z\u00e1ruky v\u00fdrobce",
    "h3_login_details": "P\u0159ihla\u0161ovac\u00ed \u00fadaje",
    "h3_basic_info": "Z\u00e1kladn\u00ed \u00fadaje",
    "description": "Popis",
    "h1_warranty_list": "Seznam z\u00e1ruk",
    "h1_new_contract_proposal": "Nov\u00fd n\u00e1vrh smlouvy",
    "beneficiary_is_insured": "Opr\u00e1vn\u011bn\u00e1 osoba je shodn\u00e1 s poji\u0161t\u011bn\u00fdm",
    "beneficiary_is_coverholder": "Opr\u00e1vn\u011bn\u00e1 osoba je shodn\u00e1 s pojistn\u00edkem",
    "h3_select_warranty_type": "Vyberte variantu poji\u0161t\u011bn\u00ed",
    "insured_is_coverholder": "Poji\u0161t\u011bn\u00fd je shodn\u00fd s pojistn\u00edkem",
    "invoice_canceled": "Stornov\u00e1na",
    "invoice_paid": "Zaplacena",
    "invoice_overdue": "Po splatnosti!",
    "invoice_waiting_for_payment": "\u010cek\u00e1 na zaplacen\u00ed",
    "flash_invoice_paid": "Faktura zaplacena",
    "confirm_invoice_cancel": "Opravdu chcete stornovat fakturu \u010d. {{ no }}",
    "confirm_invoice_delete": "Opravdu chcete smazat fakturu \u010d. {{ no }}",
    "flash_invoice_canceled": "Faktura stornov\u00e1na",
    "flash_invoice_deleted": "Faktura smaz\u00e1na",
    "vehicle_stock_days": "Po\u010det dn\u016f na sklad\u011b",
    "flash_saved": "\u00dasp\u011b\u0161n\u011b ulo\u017eeno",
    "flash_crm_case_params_vehicle_mismatch": "Parametr\u016fm v popt\u00e1vce neodpov\u00edd\u00e1 \u017e\u00e1dn\u00e9 vozidlo :(",
    "flash_crm_forgot_source": "Zapom\u011bli jste zvolit zdroj. Vyberte jej pros\u00edm v menu v pravo.",
    "alert_forgot_crm_source": "Zapom\u011bli jste zvolit zdroj. Vyberte jej pros\u00edm v menu v pravo.",
    "alert_forgot_case_name": "Vypl\u0148te n\u011bjakou zna\u010dku, model nebo n\u00e1zev p\u0159\u00edpadu.",
    "confirm_delete_case": "Opravdu si p\u0159ejete smazat p\u0159\u00edpad?",
    "flash_case_deleted": "P\u0159\u00edpad byl smaz\u00e1n",
    "flash_case_closed": "P\u0159\u00edpad byl uzav\u0159en",
    "crm_show_prev_events": "Zobrazit p\u0159edchoz\u00ed ud\u00e1losti...",
    "date_created": "Vytvo\u0159eno",
    "term": "Term\u00edn",
    "event_users_assigned": "Zad\u00e1no",
    "event_txt_added_file": "P\u0159idal soubor",
    "event_label_add_file": "P\u0159idat soubor",
    "event_label_add_term": "P\u0159idat term\u00edn",
    "event_label_assign_user": "P\u0159id\u011blit \u00fakol",
    "crm_btn_delete_case": "Smazat p\u0159\u00edpad",
    "crm_btn_go_sales_guide": "P\u0159ej\u00edt k prodeji",
    "crm_btn_case_unsuccessfully": "Ne\u00fasp\u011b\u0161n\u011b uzav\u0159\u00edt",
    "crm_btn_reopen_case": "Znovu otev\u0159\u00edt p\u0159\u00edpad",
    "bez klimatizace": "bez klimatizace",
    "\u010dty\u0159z\u00f3nov\u00e1 automatick\u00e1": "\u010dty\u0159z\u00f3nov\u00e1 automatick\u00e1",
    "dvouz\u00f3nov\u00e1 automatick\u00e1": "dvouz\u00f3nov\u00e1 automatick\u00e1",
    "manu\u00e1ln\u00ed": "manu\u00e1ln\u00ed",
    "t\u0159\u00edz\u00f3nov\u00e1 automatick\u00e1": "t\u0159\u00edz\u00f3nov\u00e1 automatick\u00e1",
    "Bezpe\u010dnostn\u00ed a stabiliza\u010dn\u00ed syst\u00e9my": "Bezpe\u010dnostn\u00ed a stabiliza\u010dn\u00ed syst\u00e9my",
    "Zabezpe\u010den\u00ed": "Zabezpe\u010den\u00ed",
    "Okna\/skla": "Okna\/skla",
    "Sedadla": "Sedadla",
    "St\u0159echa": "St\u0159echa",
    "Elektro za\u0159\u00edzen\u00ed": "Elektro za\u0159\u00edzen\u00ed",
    "Vn\u011bj\u0161\u00ed vybaven\u00ed": "Vn\u011bj\u0161\u00ed vybaven\u00ed",
    "Vnit\u0159n\u00ed vybaven\u00ed": "Vnit\u0159n\u00ed vybaven\u00ed",
    "Tunning": "Tunning",
    "Pohon": "Pohon",
    "Ostatn\u00ed": "Ostatn\u00ed",
    "v\u00edce ne\u017e 7": "v\u00edce ne\u017e 7",
    "hatchback": "hatchback",
    "sedan\/limuz\u00edna": "sedan\/limuz\u00edna",
    "kabriolet": "kabriolet",
    "kup\u00e9": "kup\u00e9",
    "kombi": "kombi",
    "VAN": "VAN",
    "MPV": "MPV",
    "SUV": "SUV",
    "pick-up": "pick-up",
    "u\u017eitkov\u00e9": "u\u017eitkov\u00e9",
    "minibus": "minibus",
    "taha\u010d": "taha\u010d",
    "valn\u00edk": "valn\u00edk",
    "skl\u00e1p\u011b\u010d": "skl\u00e1p\u011b\u010d",
    "sk\u0159\u00ed\u0148": "sk\u0159\u00ed\u0148",
    "chladic\u00ed\/mraz\u00edc\u00ed": "chladic\u00ed\/mraz\u00edc\u00ed",
    "cisterna": "cisterna",
    "n\u00e1stavba": "n\u00e1stavba",
    "m\u011bstsk\u00fd": "m\u011bstsk\u00fd",
    "p\u0159\u00edm\u011bstsk\u00fd": "p\u0159\u00edm\u011bstsk\u00fd",
    "d\u00e1lkov\u00fd": "d\u00e1lkov\u00fd",
    "obytn\u00fd": "obytn\u00fd",
    "moped": "moped",
    "sk\u00fatr": "sk\u00fatr",
    "nakedbike": "nakedbike",
    "silni\u010dn\u00ed": "silni\u010dn\u00ed",
    "enduro": "enduro",
    "ter\u00e9nn\u00ed": "ter\u00e9nn\u00ed",
    "chopper": "chopper",
    "obytn\u00fd v\u016fz": "obytn\u00fd v\u016fz",
    "obytn\u00fd p\u0159\u00edv\u011bs": "obytn\u00fd p\u0159\u00edv\u011bs",
    "ostatn\u00ed": "ostatn\u00ed",
    "bagr": "bagr",
    "autoje\u0159\u00e1b": "autoje\u0159\u00e1b",
    "buldozer": "buldozer",
    "fr\u00e9za": "fr\u00e9za",
    "kombajn": "kombajn",
    "naklada\u010d kolov\u00fd": "naklada\u010d kolov\u00fd",
    "naklada\u010d p\u00e1sov\u00fd": "naklada\u010d p\u00e1sov\u00fd",
    "rypadlo kolov\u00e9": "rypadlo kolov\u00e9",
    "rypadlo p\u00e1sov\u00e9": "rypadlo p\u00e1sov\u00e9",
    "rypadlo mini": "rypadlo mini",
    "traktor": "traktor",
    "v\u00e1lec": "v\u00e1lec",
    "vysokozdvi\u017en\u00fd voz\u00edk": "vysokozdvi\u017en\u00fd voz\u00edk",
    "\u010dty\u0159kolka": "\u010dty\u0159kolka",
    "nosi\u010d kontejner\u016f": "nosi\u010d kontejner\u016f",
    "podvaln\u00edk": "podvaln\u00edk",
    "kontejner": "kontejner",
    "speci\u00e1ln\u00ed n\u00e1stavba": "speci\u00e1ln\u00ed n\u00e1stavba",
    "v\u016fz na ND": "v\u016fz na ND",
    "tuning": "tuning",
    "interi\u00e9rov\u00e9 p\u0159\u00edslu\u0161enstv\u00ed": "interi\u00e9rov\u00e9 p\u0159\u00edslu\u0161enstv\u00ed",
    "disky, pneu": "disky, pneu",
    "st\u0159e\u0161n\u00ed nosi\u010de, boxy": "st\u0159e\u0161n\u00ed nosi\u010de, boxy",
    "motor": "motor",
    "karoserie": "karoserie",
    "ostatn\u00ed p\u0159\u00edslu\u0161enstv\u00ed": "ostatn\u00ed p\u0159\u00edslu\u0161enstv\u00ed",
    "rypadlo naklada\u010d": "rypadlo naklada\u010d",
    "odtahov\u00fd v\u016fz": "odtahov\u00fd v\u016fz",
    "liftback": "liftback",
    "mal\u00e9 moto": "mal\u00e9 moto",
    "sn\u011b\u017en\u00fd sk\u00fatr": "sn\u011b\u017en\u00fd sk\u00fatr",
    "vodn\u00ed sk\u00fatr": "vodn\u00ed sk\u00fatr",
    "sidecar": "sidecar",
    "elektromotorka": "elektromotorka",
    "t\u0159\u00edkolka": "t\u0159\u00edkolka",
    "motok\u00e1ra": "motok\u00e1ra",
    "brzdy": "brzdy",
    "podvozek": "podvozek",
    "\u0161asi": "\u0161asi",
    "skla, sv\u011btla": "skla, sv\u011btla",
    "elektro za\u0159\u00edzen\u00ed": "elektro za\u0159\u00edzen\u00ed",
    "bezpe\u010dnost": "bezpe\u010dnost",
    "chlazen\u00ed, vyh\u0159\u00edv\u00e1n\u00ed": "chlazen\u00ed, vyh\u0159\u00edv\u00e1n\u00ed",
    "veter\u00e1ni": "veter\u00e1ni",
    "zahradn\u00ed traktor": "zahradn\u00ed traktor",
    "paletov\u00fd voz\u00edk": "paletov\u00fd voz\u00edk",
    "seka\u010dka": "seka\u010dka",
    "p\u0159\u00edv\u011bs do 750 kg": "p\u0159\u00edv\u011bs do 750 kg",
    "p\u0159\u00edv\u011bs nad 750 kg": "p\u0159\u00edv\u011bs nad 750 kg",
    "n\u00e1v\u011bs": "n\u00e1v\u011bs",
    "roadster": "roadster",
    "CUV": "CUV",
    "sv\u011btl\u00e1": "sv\u011btl\u00e1",
    "tmav\u00e1": "tmav\u00e1",
    "z\u00e1kladn\u00ed": "z\u00e1kladn\u00ed",
    "metal\u00edza": "metal\u00edza",
    "f\u00f3lie": "f\u00f3lie",
    "pastelov\u00e1": "pastelov\u00e1",
    "perle\u0165ov\u00e1": "perle\u0165ov\u00e1",
    "b\u00edl\u00e1": "b\u00edl\u00e1",
    "\u017elut\u00e1": "\u017elut\u00e1",
    "oran\u017eov\u00e1": "oran\u017eov\u00e1",
    "\u010derven\u00e1": "\u010derven\u00e1",
    "v\u00ednov\u00e1": "v\u00ednov\u00e1",
    "r\u016f\u017eov\u00e1": "r\u016f\u017eov\u00e1",
    "fialov\u00e1": "fialov\u00e1",
    "modr\u00e1": "modr\u00e1",
    "zelen\u00e1": "zelen\u00e1",
    "hn\u011bd\u00e1": "hn\u011bd\u00e1",
    "\u0161ed\u00e1": "\u0161ed\u00e1",
    "\u010dern\u00e1": "\u010dern\u00e1",
    "b\u00e9\u017eov\u00e1": "b\u00e9\u017eov\u00e1",
    "st\u0159\u00edbrn\u00e1": "st\u0159\u00edbrn\u00e1",
    "zlat\u00e1": "zlat\u00e1",
    "jin\u00e1": "jin\u00e1",
    "nov\u00e9": "nov\u00e9",
    "ojet\u00e9": "ojet\u00e9",
    "havarovan\u00e9": "havarovan\u00e9",
    "p\u0159edv\u00e1d\u011bc\u00ed": "p\u0159edv\u00e1d\u011bc\u00ed",
    "veter\u00e1n": "veter\u00e1n",
    "automatick\u00e1 p\u0159evodovka": "automatick\u00e1 p\u0159evodovka",
    "manu\u00e1ln\u00ed p\u0159evodovka": "manu\u00e1ln\u00ed p\u0159evodovka",
    "ko\u017een\u00e9 \u010daloun\u011bn\u00ed": "ko\u017een\u00e9 \u010daloun\u011bn\u00ed",
    "imobiliz\u00e9r": "imobiliz\u00e9r",
    "naviga\u010dn\u00ed syst\u00e9m": "naviga\u010dn\u00ed syst\u00e9m",
    "st\u0159e\u0161n\u00ed okno": "st\u0159e\u0161n\u00ed okno",
    "centr\u00e1ln\u00ed zamyk\u00e1n\u00ed": "centr\u00e1ln\u00ed zamyk\u00e1n\u00ed",
    "ABS": "ABS",
    "el": {
        " ovl\u00e1d\u00e1n\u00ed zrc\u00e1tek": "el. ovl\u00e1d\u00e1n\u00ed zrc\u00e1tek",
        " start\u00e9r": "el. start\u00e9r",
        " ovl\u00e1d\u00e1n\u00ed oken": "el. ovl\u00e1d\u00e1n\u00ed oken",
        " se\u0159iditeln\u00e1 sedadla": "el. se\u0159iditeln\u00e1 sedadla"
    },
    "ESP": "ESP",
    "lit\u00e1 kola": "lit\u00e1 kola",
    "tempomat": "tempomat",
    "z\u00e1ruka": "z\u00e1ruka",
    "alarm": "alarm",
    "alarm s d\u00e1lkov\u00fdm ovl\u00e1d\u00e1n\u00edm": "alarm s d\u00e1lkov\u00fdm ovl\u00e1d\u00e1n\u00edm",
    "d\u00e1lkov\u00e9 centr\u00e1ln\u00ed zamyk\u00e1n\u00ed": "d\u00e1lkov\u00e9 centr\u00e1ln\u00ed zamyk\u00e1n\u00ed",
    "bezpe\u010dnostn\u00ed p\u00edskov\u00e1n\u00ed oken": "bezpe\u010dnostn\u00ed p\u00edskov\u00e1n\u00ed oken",
    "LPG v TP": "LPG v TP",
    "multifunk\u010dn\u00ed volant": "multifunk\u010dn\u00ed volant",
    "autor\u00e1dio": "autor\u00e1dio",
    "palubn\u00ed po\u010d\u00edta\u010d": "palubn\u00ed po\u010d\u00edta\u010d",
    "parkovac\u00ed asistent": "parkovac\u00ed asistent",
    "posilova\u010d \u0159\u00edzen\u00ed": "posilova\u010d \u0159\u00edzen\u00ed",
    "p\u0159\u00eddavn\u00e1 sv\u011btla": "p\u0159\u00eddavn\u00e1 sv\u011btla",
    "nastaviteln\u00e1 sedadla": "nastaviteln\u00e1 sedadla",
    "nastaviteln\u00fd volant": "nastaviteln\u00fd volant",
    "st\u0159e\u0161n\u00ed nosi\u010d": "st\u0159e\u0161n\u00ed nosi\u010d",
    "t\u00f3novan\u00e1 skla": "t\u00f3novan\u00e1 skla",
    "vyh\u0159\u00edvan\u00e1 zrc\u00e1tka": "vyh\u0159\u00edvan\u00e1 zrc\u00e1tka",
    "vyh\u0159\u00edvan\u00e9 \u010deln\u00ed sklo": "vyh\u0159\u00edvan\u00e9 \u010deln\u00ed sklo",
    "vyh\u0159\u00edvan\u00e1 sedadla": "vyh\u0159\u00edvan\u00e1 sedadla",
    "xenony": "xenony",
    "z\u00e1mek \u0159ad\u00edc\u00ed p\u00e1ky": "z\u00e1mek \u0159ad\u00edc\u00ed p\u00e1ky",
    "z\u00e1v\u011bsn\u00e9 za\u0159\u00edzen\u00ed v TP": "z\u00e1v\u011bsn\u00e9 za\u0159\u00edzen\u00ed v TP",
    "no\u017en\u00ed start\u00e9r": "no\u017en\u00ed start\u00e9r",
    "vari\u00e1tor": "vari\u00e1tor",
    "katalyz\u00e1tor": "katalyz\u00e1tor",
    "plexi \u0161t\u00edt": "plexi \u0161t\u00edt",
    "p\u0159\u00edprava pro autor\u00e1dio": "p\u0159\u00edprava pro autor\u00e1dio",
    "kazetov\u00fd p\u0159ehr\u00e1va\u010d": "kazetov\u00fd p\u0159ehr\u00e1va\u010d",
    "CD p\u0159ehr\u00e1va\u010d": "CD p\u0159ehr\u00e1va\u010d",
    "CD m\u011bni\u010d": "CD m\u011bni\u010d",
    "televize": "televize",
    "p\u0159ehr\u00e1va\u010d videa": "p\u0159ehr\u00e1va\u010d videa",
    "1 monitor": "1 monitor",
    "2 monitory": "2 monitory",
    "3 monitory": "3 monitory",
    "4 monitory": "4 monitory",
    "telefon": "telefon",
    "p\u0159\u00edprava pro telefon": "p\u0159\u00edprava pro telefon",
    "CB vys\u00edla\u010dka": "CB vys\u00edla\u010dka",
    "mikrofon": "mikrofon",
    "zaslepen\u00ed z\u00e1mk\u016f": "zaslepen\u00ed z\u00e1mk\u016f",
    "otev\u00edrateln\u00e1 st\u0159echa": "otev\u00edrateln\u00e1 st\u0159echa",
    "ski box": "ski box",
    "ost\u0159ikova\u010de sv\u011btlomet\u016f": "ost\u0159ikova\u010de sv\u011btlomet\u016f",
    "ochrann\u00e9 r\u00e1my": "ochrann\u00e9 r\u00e1my",
    "st\u0159e\u0161n\u00ed spoiler": "st\u0159e\u0161n\u00ed spoiler",
    "zadn\u00ed st\u011bra\u010d": "zadn\u00ed st\u011bra\u010d",
    "chladni\u010dka": "chladni\u010dka",
    "k\u00e1vovar": "k\u00e1vovar",
    "mikrovln\u00e1 trouba": "mikrovln\u00e1 trouba",
    "WC": "WC",
    "oh\u0159\u00edva\u010d vody": "oh\u0159\u00edva\u010d vody",
    "z\u00e1suvka na 220 V": "z\u00e1suvka na 220 V",
    "nez\u00e1visl\u00e9 topen\u00ed": "nez\u00e1visl\u00e9 topen\u00ed",
    "nez\u00e1visl\u00e9 topen\u00ed s \u010das": {
        " p\u0159edeh\u0159\u00edva\u010dem": "nez\u00e1visl\u00e9 topen\u00ed s \u010das. p\u0159edeh\u0159\u00edva\u010dem"
    },
    "vyj\u00edmateln\u00e1 zadn\u00ed sedadla": "vyj\u00edmateln\u00e1 zadn\u00ed sedadla",
    "p\u0159\u00edprava pro ISOFIX": "p\u0159\u00edprava pro ISOFIX",
    "s\u00ed\u0165ka mezist\u011bny zavazadlov\u00e9ho prostoru": "s\u00ed\u0165ka mezist\u011bny zavazadlov\u00e9ho prostoru",
    "sportovn\u00ed sedadla": "sportovn\u00ed sedadla",
    "v\u00fd\u0161kov\u011b nastaviteln\u00e1 sedadla": "v\u00fd\u0161kov\u011b nastaviteln\u00e1 sedadla",
    "pod\u00e9ln\u00fd posuv sedadel": "pod\u00e9ln\u00fd posuv sedadel",
    "sedadla v\u00fdsuvn\u00e1 do uli\u010dky": "sedadla v\u00fdsuvn\u00e1 do uli\u010dky",
    "v\u00fdsuvn\u00e9 op\u011brky hlav": "v\u00fdsuvn\u00e9 op\u011brky hlav",
    "ko\u017een\u00e9 potahy": "ko\u017een\u00e9 potahy",
    "d\u0159ev\u011bn\u00e9 oblo\u017een\u00ed": "d\u0159ev\u011bn\u00e9 oblo\u017een\u00ed",
    "satelitn\u00ed navigace": "satelitn\u00ed navigace",
    "ta\u017en\u00e9 za\u0159\u00edzen\u00ed": "ta\u017en\u00e9 za\u0159\u00edzen\u00ed",
    "EDS": "EDS",
    "senzor st\u011bra\u010d\u016f": "senzor st\u011bra\u010d\u016f",
    "pohon 4 x 4": "pohon 4 x 4",
    "pohon 6 x 4": "pohon 6 x 4",
    "pohon 6 x 6": "pohon 6 x 6",
    "pohon 8 x 4": "pohon 8 x 4",
    "pohon 8 x 8": "pohon 8 x 8",
    "ot\u00e1\u010dkom\u011br": "ot\u00e1\u010dkom\u011br",
    "sportovn\u00ed podvozek": "sportovn\u00ed podvozek",
    "lad\u011bn\u00fd v\u00fdfuk": "lad\u011bn\u00fd v\u00fdfuk",
    "1 x l\u016f\u017eko": "1 x l\u016f\u017eko",
    "2 x l\u016f\u017eko": "2 x l\u016f\u017eko",
    "hydraulika pro skl\u00e1p\u011bn\u00ed": "hydraulika pro skl\u00e1p\u011bn\u00ed",
    "jednoduch\u00e1 n\u00e1dr\u017e do 400 l nafty": "jednoduch\u00e1 n\u00e1dr\u017e do 400 l nafty",
    "dvojit\u00e1 n\u00e1dr\u017e do 800 l nafty": "dvojit\u00e1 n\u00e1dr\u017e do 800 l nafty",
    "intard\u00e9r": "intard\u00e9r",
    "retard\u00e9r": "retard\u00e9r",
    "d\u00e1lkov\u00fd start": "d\u00e1lkov\u00fd start",
    "6 rychlostn\u00edch stup\u0148\u016f": "6 rychlostn\u00edch stup\u0148\u016f",
    "protiprokluzov\u00fd syst\u00e9m kol (ASR)": "protiprokluzov\u00fd syst\u00e9m kol (ASR)",
    "v\u00fdbava ADR": "v\u00fdbava ADR",
    "uz\u00e1v\u011brka mezin\u00e1pravov\u00e9ho diferenci\u00e1lu": "uz\u00e1v\u011brka mezin\u00e1pravov\u00e9ho diferenci\u00e1lu",
    "venkovn\u00ed teplom\u011br": "venkovn\u00ed teplom\u011br",
    "vnit\u0159n\u00ed teplom\u011br": "vnit\u0159n\u00ed teplom\u011br",
    "airbrush": "airbrush",
    "pad\u00e1ky": "pad\u00e1ky",
    "kufry": "kufry",
    "bra\u0161ny": "bra\u0161ny",
    "vzduchov\u00e9 ovl\u00e1d\u00e1n\u00ed dve\u0159\u00ed": "vzduchov\u00e9 ovl\u00e1d\u00e1n\u00ed dve\u0159\u00ed",
    "regulace v\u00fd\u0161ky podvozku": "regulace v\u00fd\u0161ky podvozku",
    "regulace tuhosti podvozku": "regulace tuhosti podvozku",
    "tlumi\u010d \u0159\u00edzen\u00ed": "tlumi\u010d \u0159\u00edzen\u00ed",
    "konven\u010dn\u00ed odpru\u017een\u00ed": "konven\u010dn\u00ed odpru\u017een\u00ed",
    "vzduchov\u00e9 odpru\u017een\u00ed": "vzduchov\u00e9 odpru\u017een\u00ed",
    "tachograf": "tachograf",
    "navij\u00e1k": "navij\u00e1k",
    "airbag": "airbag",
    "poloautomatick\u00e1 p\u0159evodovka": "poloautomatick\u00e1 p\u0159evodovka",
    "pohon 4 x 2": "pohon 4 x 2",
    "pohon 6 x 2": "pohon 6 x 2",
    "kabina trambusov\u00e1": "kabina trambusov\u00e1",
    "kabina kapotovan\u00e1": "kabina kapotovan\u00e1",
    "mlhovky": "mlhovky",
    "zadn\u00ed mlhovka": "zadn\u00ed mlhovka",
    "uz\u00e1v\u011brka zadn\u00edho diferenci\u00e1lu": "uz\u00e1v\u011brka zadn\u00edho diferenci\u00e1lu",
    "uz\u00e1v\u011brka p\u0159edn\u00edho diferenci\u00e1lu": "uz\u00e1v\u011brka p\u0159edn\u00edho diferenci\u00e1lu",
    "bo\u010dn\u00ed n\u00e1\u0161lapy": "bo\u010dn\u00ed n\u00e1\u0161lapy",
    "\u0161norchl": "\u0161norchl",
    "s couvac\u00edm sv\u011btlem": "s couvac\u00edm sv\u011btlem",
    "vidlice 7-pol": "vidlice 7-pol",
    "vidlice 13-pol": "vidlice 13-pol",
    "op\u011brn\u00e9 kole\u010dko": "op\u011brn\u00e9 kole\u010dko",
    "op\u011brn\u00e9 nohy": "op\u011brn\u00e9 nohy",
    "plachta": "plachta",
    "lamin\u00e1tov\u00e9 v\u00edko": "lamin\u00e1tov\u00e9 v\u00edko",
    "kotv\u00edc\u00ed oka": "kotv\u00edc\u00ed oka",
    "rezervn\u00ed kolo": "rezervn\u00ed kolo",
    "zakl\u00e1dac\u00ed kl\u00edny": "zakl\u00e1dac\u00ed kl\u00edny",
    "nebrzd\u011bn\u00fd": "nebrzd\u011bn\u00fd",
    "brzd\u011bn\u00fd": "brzd\u011bn\u00fd",
    "trubkov\u00e1\/jeklov\u00e1 oj": "trubkov\u00e1\/jeklov\u00e1 oj",
    "\"V\" oj": "\"V\" oj",
    "v\u00fd\u0161kov\u011b staviteln\u00e1 oj": "v\u00fd\u0161kov\u011b staviteln\u00e1 oj",
    "p\u0159ekli\u017ekov\u00e9 bo\u010dnice": "p\u0159ekli\u017ekov\u00e9 bo\u010dnice",
    "plechov\u00e9 bo\u010dnice": "plechov\u00e9 bo\u010dnice",
    "hlin\u00edkov\u00e9 bo\u010dnice": "hlin\u00edkov\u00e9 bo\u010dnice",
    "bez bo\u010dnic": "bez bo\u010dnic",
    "Start\/Stop syst\u00e9m": "Start\/Stop syst\u00e9m",
    "asistent rozjezdu do kopce": "asistent rozjezdu do kopce",
    "parkovac\u00ed senzory": "parkovac\u00ed senzory",
    "isofix": "isofix",
    "panoramatick\u00e1 st\u0159echa": "panoramatick\u00e1 st\u0159echa",
    "bezkl\u00ed\u010dkov\u00e9 ovl\u00e1d\u00e1n\u00ed": "bezkl\u00ed\u010dkov\u00e9 ovl\u00e1d\u00e1n\u00ed",
    "r\u00e1dio": "r\u00e1dio",
    "origin\u00e1l autor\u00e1dio": "origin\u00e1l autor\u00e1dio",
    "d\u011blen\u00e1 zadn\u00ed sedadla": "d\u011blen\u00e1 zadn\u00ed sedadla",
    "regulace p\u0159i j\u00edzd\u011b ze svahu": "regulace p\u0159i j\u00edzd\u011b ze svahu",
    "klimatizovan\u00e1 p\u0159ihr\u00e1dka": "klimatizovan\u00e1 p\u0159ihr\u00e1dka",
    "v\u00fd\u0161kov\u011b nastaviteln\u00e9 sedadlo \u0159idi\u010de": "v\u00fd\u0161kov\u011b nastaviteln\u00e9 sedadlo \u0159idi\u010de",
    "automatick\u00e1 uz\u00e1v\u011brka diferenci\u00e1lu": "automatick\u00e1 uz\u00e1v\u011brka diferenci\u00e1lu",
    "deaktivace airbagu spolujezdce": "deaktivace airbagu spolujezdce",
    "ko\u017een\u00e1 sedadla": "ko\u017een\u00e1 sedadla",
    "LED denn\u00ed sv\u00edcen\u00ed": "LED denn\u00ed sv\u00edcen\u00ed",
    "benz\u00edn": "benz\u00edn",
    "CNG": "CNG",
    "elektro": "elektro",
    "ethanol": "ethanol",
    "hybridn\u00ed": "hybridn\u00ed",
    "jin\u00e9": "jin\u00e9",
    "LPG": "LPG",
    "nafta": "nafta",
    "poloautomatick\u00e1": "poloautomatick\u00e1",
    "automatick\u00e1": "automatick\u00e1",
    "autobusy": "autobusy",
    "\u010dty\u0159kolky": "\u010dty\u0159kolky",
    "motocykly": "motocykly",
    "n\u00e1hradn\u00ed d\u00edly a p\u0159\u00edslu\u0161enstv\u00ed": "n\u00e1hradn\u00ed d\u00edly a p\u0159\u00edslu\u0161enstv\u00ed",
    "n\u00e1kladn\u00ed": "n\u00e1kladn\u00ed",
    "obytn\u00e9": "obytn\u00e9",
    "osobn\u00ed": "osobn\u00ed",
    "pracovn\u00ed stroje": "pracovn\u00ed stroje",
    "p\u0159\u00edv\u011bsy, n\u00e1v\u011bsy": "p\u0159\u00edv\u011bsy, n\u00e1v\u011bsy",
    "u\u017eitkov\u00fd": "u\u017eitkov\u00fd",
    "\u010cesk\u00e1 Republika": "\u010cesk\u00e1 Republika",
    "Slovensk\u00e1 Republika": "Slovensk\u00e1 Republika",
    "Francie": "Francie",
    "It\u00e1lie": "It\u00e1lie",
    "N\u011bmecko": "N\u011bmecko",
    "Rakousko": "Rakousko",
    "\u0160v\u00fdcarsko": "\u0160v\u00fdcarsko",
    "Holandsko": "Holandsko",
    "Lucembursko": "Lucembursko",
    "Jin\u00e1": "Jin\u00e1",
    "Belgie": "Belgie",
    "\u0160pan\u011blsko": "\u0160pan\u011blsko",
    "D\u00e1nsko": "D\u00e1nsko",
    "Nedohledateln\u00fd p\u016fvod": "Nedohledateln\u00fd p\u016fvod",
    "USA": "USA",
    "flash_contact_form_submitted": "D\u011bkujeme za Va\u0161i zpr\u00e1vu. Na\u0161i prodejci V\u00e1s budou co nejd\u0159\u00edve kontaktovat.",
    "mail_question_body": "obdr\u017eeli jste dotaz z webov\u00e9ho formul\u00e1\u0159e",
    "mail_vehicle_detail_question_body": "obdr\u017eeli jste dotaz k vozidlu",
    "mail_question": "Dotaz z webov\u00e9ho formul\u00e1\u0159e",
    "mail_vehicle_detail_question": "Dotaz k vozidlu"
}